<?xml version="1.0" encoding="utf-8"?>
<svg version="1.1"
     xmlns="http://www.w3.org/2000/svg"
     viewBox="0 0 500 214"
     width="500" height="214">
    <path d="M497.9743958,131.4932404c-1.3513489-1.9027405-3.3369751-3.5569229-5.9567871-4.9568405
			c-2.619873-1.3970566-5.9967957-2.6026993-10.1308289-3.6112137c-3.4826355-0.8456573-6.2167664-1.5627594-8.2023926-2.1484375
			c-1.9855652-0.5856781-3.5654602-1.3256378-4.7368164-2.2227249c-1.1713562-0.8942337-1.7570496-2.0427322-1.7570496-3.4426422
			c0-1.5284805,0.7971191-2.8055573,2.3912964-3.8312149c1.5941772-1.0256424,3.5969238-1.5370407,6.0053101-1.5370407
			c2.3455811,0,4.1997681,0.3885498,5.5682678,1.1713562c1.3656311,0.779953,2.5541077,1.8227463,3.5626221,3.1226654
			c1.2371216,1.562767,2.3370361,2.7341232,3.2969666,3.5169373c0.9599304,0.779953,2.1227112,1.1713638,3.4912109,1.1713638
			c1.8856201,0,3.3426514-0.4885483,4.3683472-1.4656296c1.0256348-0.9742279,1.539856-2.2284393,1.539856-3.7597809
			c0-1.3970566-0.4827881-2.8312531-1.442749-4.2940216c-0.9599304-1.4656219-2.3598633-2.7998352-4.1968994-4.0054626
			c-1.8398743-1.2028046-4.1340332-2.1627426-6.8852844-2.879837c-2.7512817-0.7171021-5.8510742-1.0742264-9.3023376-1.0742264
			c-4.3939819,0-8.1452026,0.7085342-11.2535706,2.1227417c-3.1083984,1.4170456-5.4596863,3.3140793-7.0538635,5.6882172
			c-1.5970459,2.3769989-2.3941345,4.899704-2.3941345,7.5681229c0,2.9969559,0.8627625,5.5168076,2.5884094,7.5681076
			c1.7256165,2.0513153,4.0283203,3.7026367,6.9081421,4.9568481c2.8826904,1.251358,6.6167603,2.4484253,11.2050171,3.5883636
			c4.0683594,0.9770813,6.9910278,2.0027313,8.7652283,3.0740967c1.7741699,1.0742188,2.6598511,2.7855377,2.6598511,5.1282501
			c0,1.5313568-0.854248,2.8884125-2.5627136,4.0769043c-1.7084656,1.1885071-3.8969116,1.7827606-6.5653381,1.7827606
			c-3.2883911,0-5.8853455-0.5856934-7.7881165-1.759903c-1.9055786-1.1713562-3.5397644-2.9455261-4.9082642-5.3196716
			c-0.6828308-1.2370758-1.3999023-2.1970215-2.1484375-2.8826904c-0.7485046-0.6828156-1.8227539-1.02565-3.2226562-1.02565
			c-1.5941772,0-2.9112244,0.5228271-3.9540405,1.5627594c-1.0428162,1.0428009-1.5627747,2.2969971-1.5627747,3.7597809
			c0,2.2141571,0.814209,4.4197235,2.4427185,6.616745c1.6256104,2.1970062,4.1483154,4.0283356,7.5681152,5.4939423
			c3.4169312,1.4627686,7.5166931,2.1970215,12.302124,2.1970215c5.0140076,0,9.2680054-0.6771088,12.7677917-2.0284576
			c3.4997864-1.3484802,6.1453552-3.3340759,7.9338379-5.9567719C499.1057434,144.8381653,500,141.6897736,500,138.0128632
			C500,135.5701447,499.3257446,133.3988495,497.9743958,131.4932404 M443.7776184,131.4932404
			c-1.3513184-1.9027405-3.3369446-3.5569229-5.9567566-4.9568405c-2.619873-1.3970566-5.9967957-2.6026993-10.1308289-3.6112137
			c-3.4826355-0.8456573-6.2167664-1.5627594-8.2023926-2.1484375c-1.9855652-0.5856781-3.5626221-1.3256378-4.7368164-2.2227249
			c-1.1713867-0.8942337-1.7570496-2.0427322-1.7570496-3.4426422c0-1.5284805,0.7971191-2.8055573,2.3941345-3.8312149
			c1.5941772-1.0256424,3.5940857-1.5370407,6.0053711-1.5370407c2.3426819,0,4.1968689,0.3885498,5.5653687,1.1713562
			c1.3656311,0.779953,2.5541077,1.8227463,3.5626221,3.1226654c1.2371216,1.562767,2.3370361,2.7341232,3.2969666,3.5169373
			c0.9599304,0.779953,2.1227112,1.1713638,3.4912109,1.1713638c1.8884583,0,3.34552-0.4885483,4.3682861-1.4656296
			c1.0256958-0.9742279,1.539917-2.2284393,1.539917-3.7597809c0-1.3970566-0.4799805-2.8312531-1.4399109-4.2940216
			c-0.9627686-1.4656219-2.3627014-2.7998352-4.1997375-4.0054626c-1.8399048-1.2028046-4.1340332-2.1627426-6.8852844-2.879837
			c-2.7512817-0.7171021-5.8510742-1.0742264-9.2994385-1.0742264c-4.3940125,0-8.1481018,0.7085342-11.2565002,2.1227417
			c-3.1083679,1.4170456-5.4596558,3.3140793-7.053833,5.6882172c-1.5941772,2.3769989-2.3912964,4.899704-2.3912964,7.5681229
			c0,2.9969559,0.8599243,5.5168076,2.5855408,7.5681076c1.725647,2.0513153,4.0283508,3.7026367,6.9110413,4.9568481
			c2.8798218,1.251358,6.6138916,2.4484253,11.2050476,3.5883636c4.0682983,0.9770813,6.9881287,2.0027313,8.7623291,3.0740967
			c1.7741699,1.0742188,2.6626587,2.7855377,2.6626587,5.1282501c0,1.5313568-0.8542175,2.8884125-2.5655518,4.0769043
			c-1.7084351,1.1885071-3.8968811,1.7827606-6.5653076,1.7827606c-3.2883911,0-5.8824768-0.5856934-7.7881165-1.759903
			c-1.9027405-1.1713562-3.5397644-2.9455261-4.9053955-5.3196716c-0.6856995-1.2370758-1.3999329-2.1970215-2.1484375-2.8826904
			c-0.7513733-0.6828156-1.8256226-1.02565-3.2226868-1.02565c-1.5970154,0-2.9141235,0.5228271-3.9568787,1.5627594
			c-1.0399475,1.0428009-1.5627747,2.2969971-1.5627747,3.7597809c0,2.2141571,0.814209,4.4197235,2.4427185,6.616745
			c1.6284485,2.1970062,4.1511841,4.0283356,7.5681152,5.4939423c3.4169312,1.4627686,7.5195618,2.1970215,12.3049622,2.1970215
			c5.0111084,0,9.2680054-0.6771088,12.7678223-2.0284576c3.4969177-1.3484802,6.1424561-3.3340759,7.9337769-5.9567719
			c1.7884827-2.6198425,2.6855774-5.7682343,2.6855774-9.4451447
			C445.8060913,135.5701447,445.1289978,133.3988495,443.7776184,131.4932404 M358.4799194,113.8685913
			c2.1312561-2.2970047,4.8596802-3.4426575,8.1794739-3.4426575c3.482666,0,6.2910461,1.1313629,8.4223633,3.3940811
			c2.1312866,2.2627335,3.3598022,5.6710892,3.6855164,10.2279663h-24.1671448
			C355.0543823,119.5568237,356.3486023,116.1627426,358.4799194,113.8685913 M388.7780762,130.1276093
			c1.9198914-0.9942169,2.8798218-3.1655197,2.8798218-6.5195999c0-3.6140671-0.9284973-7.1595764-2.7826843-10.6450806
			c-1.8570251-3.4826431-4.6482849-6.3224716-8.3737793-8.5194778c-3.7283325-2.1970215-8.1966553-3.2940826-13.4020386-3.2940826
			c-4.0054932,0-7.651001,0.6428146-10.9364929,1.9284439c-3.2883911,1.2856445-6.0567627,3.1312408-8.3023682,5.5396729
			c-2.245575,2.4112778-3.954071,5.2996674-5.1253967,8.668045c-1.1713562,3.3683701-1.7570496,7.0224304-1.7570496,10.9621964
			c0,8.3652039,2.374115,14.9876709,7.1281433,19.8702393c4.7511597,4.8825531,11.4078979,7.3252716,19.9702454,7.3252716
			c3.7426147,0,7.053833-0.4885406,9.9336853-1.4656372c2.8826904-0.9770813,5.2739563-2.2055817,7.1795654-3.6854858
			c1.9027405-1.4827576,3.325531-3.0283813,4.2711792-4.6397095c0.9427795-1.6113434,1.4170532-3.0198212,1.4170532-4.2226105
			c0-1.3684845-0.4256897-2.4255676-1.2713623-3.1741028c-0.8456421-0.7485199-1.9513245-1.1227875-3.3197632-1.1227875
			c-1.2685242,0-2.245636,0.2914124-2.9284363,0.8799591c-1.6598816,1.5598907-3.011261,2.7998199-4.0540161,3.7083435
			c-1.0428162,0.911377-2.1798706,1.7684631-3.4169922,2.5655518c-1.2370605,0.7971039-2.5140991,1.382782-3.8340149,1.7570496
			c-1.3170776,0.3742523-2.7741089,0.559967-4.3682861,0.559967c-2.3770142,0-4.5483398-0.5856934-6.5196533-1.7570496
			c-1.9684448-1.1713562-3.5483398-2.9112396-4.7340088-5.2253876c-1.1885071-2.3084412-1.7998657-4.9797058-1.8312988-8.005249
			h26.0727234C384.1555176,131.6160889,386.8553162,131.1189728,388.7780762,130.1276093 M319.4707947,153.4633484
			c1.1856384,1.319931,2.6912842,1.9798889,4.5140381,1.9798889s3.3140869-0.6371002,4.4682922-1.9056091
			c1.1542358-1.2684937,1.7341919-3.1740875,1.7341919-5.7110748v-38.6205368c0-2.6712723-0.6028442-4.6654358-1.805603-5.9824982
			c-1.2056274-1.3170547-2.8027039-1.9770279-4.7854309-1.9770279c-1.9856262,0-3.5969543,0.668541-4.8340149,2.0027542
			c-1.2370605,1.3341904-1.8569946,3.3197861-1.8569946,5.9567719v16.2075958
			c0,6.3824692-0.3742981,10.5165176-1.1228027,12.4021072c-0.911377,2.1484375-2.3598938,3.8912048-4.345459,5.2254028
			c-1.9856262,1.334198-4.0997314,1.9998779-6.3453674,1.9998779c-2.3112488,0-4.1425781-0.5913849-5.4938965-1.779892
			c-1.3513794-1.1885071-2.2884827-2.8341217-2.8084106-4.9311218c-0.519989-2.099884-0.7799988-4.6968689-0.7799988-7.7881165
			v-21.3358536c0-2.6369858-0.6199341-4.6225815-1.854126-5.9567719c-1.2399597-1.3342133-2.8655701-2.0027542-4.8825989-2.0027542
			c-1.9884644,0-3.5826416,0.6599731-4.7854004,1.9770279c-1.2056885,1.3170624-1.8085022,3.3112259-1.8085022,5.9824982v26.4126968
			c0,5.3054047,0.8313904,9.3737335,2.4913025,12.20784c1.3999023,2.3427124,3.3769226,4.1826019,5.9310913,5.5167999
			c2.5569458,1.3342133,5.4453735,1.9998932,8.6680298,1.9998932c2.668396,0,5.0454102-0.3342743,7.1281433-0.999939
			c2.0827332-0.6656799,4.0026245-1.6856232,5.7625122-3.0512543c1.7570496-1.3684845,3.4312134-3.0598145,5.0282898-5.0768433
			v1.7084808C317.6880798,150.3006897,318.2823181,152.146286,319.4707947,153.4633484 M234.4159241,115.5513458
			c2.2941589-2.896965,5.3453979-4.3454514,9.1537476-4.3454514c3.9083252,0,7.0567017,1.5141907,9.447998,4.5425873
			c2.3941345,3.025528,3.5883484,7.2566986,3.5883484,12.6935196c0,3.4169464-0.6171112,6.3224792-1.854187,8.7137604
			c-1.2370605,2.3941345-2.8398285,4.1854706-4.8082733,5.371109c-1.9713135,1.1884918-4.0626068,1.7827454-6.2739105,1.7827454
			c-3.7454834,0-6.7967224-1.382782-9.156601-4.1511688c-2.359848-2.7655487-3.5397797-6.8510132-3.5397797-12.2535629
			C230.9732666,122.5680618,232.1217651,118.4483185,234.4159241,115.5513458 M268.3253174,103.7606201
			c-0.8456726-1.6770325-2.5570068-2.5141296-5.1254272-2.5141296c-1.7913208,0-3.2569275,0.6342545-4.3968811,1.9027481
			c-1.1370544,1.2713547-1.7084656,3.0598145-1.7084656,5.3711014v1.8084717
			c-2.3741455-3.094101-4.9482727-5.3625336-7.7138214-6.8110275c-2.7655334-1.4484787-6.0367584-2.1741409-9.8136749-2.1741409
			c-3.1569672,0-6.0539246,0.5628204-8.6909027,1.6856003c-2.6369934,1.1227875-4.9625549,2.7912521-6.9824371,5.0025558
			c-2.0170288,2.2141495-3.5712128,4.9311295-4.6625977,8.153801c-1.0913544,3.2226562-1.6341858,6.8367233-1.6341858,10.8393402
			c0,5.3711166,0.8942566,10.1079636,2.6855621,14.2077255c1.7884674,4.1026001,4.3511658,7.2938538,7.6881256,9.5708466
			c3.3369293,2.2798615,7.2338409,3.4169464,11.6935577,3.4169464c3.7112274,0,6.9081573-0.7485352,9.5937042-2.2455902
			s5.0539703-3.6769257,7.1052856-6.54245c-0.0657043,4.3625946-0.1628418,7.5281067-0.2942505,9.4965515
			c-0.1285706,1.9684753-0.5771027,3.816925-1.3427887,5.5425415c-0.7628174,1.7256012-2.0970001,3.0683746-4.0026245,4.0283203
			c-1.9027405,0.9599457-4.5825653,1.4399109-8.0309143,1.4399109c-1.6941986,0-3.1912537-0.1542816-4.4911804-0.4628296
			c-1.3027649-0.3114014-2.4169922-0.7828064-3.3455048-1.4170532s-1.7741852-1.3999176-2.5398407-2.2941437
			c-0.7656708-0.8970947-1.5056305-1.7827606-2.2198792-2.6627045c-1.4656219-1.7256012-3.1740875-2.585556-5.1282501-2.585556
			c-1.5627594,0-2.8969727,0.5113983-4.0026245,1.5370483c-1.1085052,1.0256653-1.6598969,2.3512878-1.6598969,3.9797668
			c0,2.1484375,0.9770813,4.2397461,2.9283905,6.2739105c1.9541626,2.0341644,4.7368469,3.6940613,8.3509216,4.9797058
			c3.6112061,1.2856293,7.7138367,1.9284515,12.302124,1.9284515c5.0139923,0,9.2051544-0.5056915,12.5735321-1.5141907
			c3.3683624-1.0085144,6.0938873-2.5541382,8.176651-4.6368713c2.0827332-2.0855865,3.5969238-4.7197113,4.542572-7.9109497
			c0.9428101-3.1912384,1.4141846-6.9967346,1.4141846-11.4250336v-38.7176743
			C269.5937805,107.8546753,269.1709595,105.4376755,268.3253174,103.7606201"/>
    <path style="fill:cmyk(0,52.160000801086426,93.37999820709229,0)"
          d="M151.9680176,119.239418c1.0570984-2.5884247,2.5455627-4.5740204,4.4683228-5.9567947
			c1.9198761-1.3827667,4.0997467-2.0770111,6.5424347-2.0770111c2.3427429,0,4.4997559,0.6771011,6.4681854,2.02845
			c1.9684601,1.3513412,3.5312195,3.3026505,4.6883087,5.8567886c1.1542206,2.5569916,1.731308,5.6082382,1.731308,9.156601
			c0,3.7769012-0.5770874,6.925293-1.731308,9.447998c-1.1570892,2.5227051-2.7026825,4.3940125-4.6397247,5.6139526
			c-1.937027,1.2199249-4.0769043,1.8313141-6.4196167,1.8313141c-2.3112793,0-4.4425964-0.6428223-6.396759-1.9284515
			c-1.9512939-1.2856445-3.4912109-3.1998138-4.6140137-5.7368011c-1.1227875-2.5398407-1.6827545-5.616806-1.6827545-9.2280121
			C150.3824005,124.8276443,150.9109344,121.8249741,151.9680176,119.239418 M178.3835907,153.4659271
			c1.1856384,1.3170624,2.6912689,1.9770203,4.5139923,1.9770203c1.8570404,0,3.3712311-0.6342468,4.5426025-1.9055939
			c1.1713409-1.2684937,1.7570343-3.1741028,1.7570343-5.7110901V89.0412445c0-2.5084381-0.5457001-4.4025955-1.6370392-5.6882477
			c-1.088501-1.2856293-2.6427155-1.9284439-4.6625977-1.9284439c-2.0169983,0-3.5712128,0.6999435-4.6625671,2.0970001
			c-1.0913696,1.3999329-1.6341858,3.4683762-1.6341858,6.2024994v19.6759567
			c-2.5084076-2.7341156-5.0796967-4.7597046-7.7138367-6.0796432c-2.6369629-1.3170624-5.8767853-1.977005-9.7165375-1.977005
			c-6.6396179,0-11.9964294,2.3284149-16.064743,6.9824371c-4.0683441,4.6539917-6.1025085,11.1478806-6.1025085,19.4816666
			c0,3.9397736,0.5114136,7.5995483,1.5370636,10.9850616c1.0256348,3.3855133,2.5312653,6.3310394,4.5168457,8.8366089
			c1.9855957,2.5084229,4.3368988,4.4368744,7.0567322,5.7882233c2.7169952,1.3484955,5.6710815,2.025589,8.8594818,2.025589
			c2.4084167,0,4.631134-0.334259,6.6653137-1.0027924c2.0341644-0.6656799,3.9226074-1.6427612,5.6653595-2.9283905
			c1.7398987-1.2856445,3.5055237-2.9541168,5.2968292-5.0054169v1.3199158
			C176.6008301,150.2661133,177.1950836,152.1460114,178.3835907,153.4659271 M114.813118,153.3430786
			c1.2199097,1.3999176,2.8055344,2.0998688,4.7597198,2.0998688c1.9855881,0,3.6054764-0.6770935,4.856842-2.025589
			c1.2542191-1.3513489,1.8798752-3.3769379,1.8798752-6.0796356V89.5269241c0-2.6998367-0.6170959-4.7254333-1.8541565-6.0767746
			c-1.2370911-1.3513489-2.8655624-2.0255966-4.8825607-2.0255966c-2.0198822,0-3.6226578,0.6828156-4.8083038,2.048439
			c-1.1884995,1.3684998-1.782753,3.3855209-1.782753,6.0539322v57.8107986
			C112.981781,149.9404297,113.590332,151.943161,114.813118,153.3430786 M97.2598724,93.3124008
			c1.2999268-1.154213,1.9513092-2.7598267,1.9513092-4.8082809c0-2.1170044-0.665657-3.7283478-1.9998703-4.8339996
			c-1.3370743-1.1056519-2.8655396-1.6599045-4.5911636-1.6599045c-1.7884598,0-3.3597794,0.608551-4.7111511,1.8313141
			c-1.3513412,1.2199326-2.025589,2.7741241-2.025589,4.66259c0,2.0827255,0.6599655,3.6940613,1.9770279,4.8311462
			c1.3170624,1.1399155,2.9055328,1.711319,4.7597122,1.711319C94.4114685,95.0465851,95.9570923,94.4666138,97.2598724,93.3124008
			 M97.3084335,103.2489624c-1.2684937-1.3342133-2.8798141-2.0027542-4.8339767-2.0027542
			c-1.9541855,0-3.5398026,0.668541-4.7597122,2.0027542c-1.2199326,1.3341904-1.831337,3.3197861-1.831337,5.9567719v38.1319885
			c0,2.6027069,0.6114044,4.6054382,1.831337,6.0053558c1.2199097,1.3999176,2.8055267,2.0998688,4.7597122,2.0998688
			c1.9541626,0,3.5654831-0.6828156,4.8339767-2.0513c1.2685013-1.3684845,1.9027481-3.3855133,1.9027481-6.0539246v-38.5233994
			C99.2111816,106.4373322,98.5769348,104.5831528,97.3084335,103.2489624 M10.3993845,103.126091
			c-0.7799606-1.2513428-2.2798634-1.8798828-4.4911656-1.8798828c-1.659904,0-3.0598137,0.5714111-4.1997514,1.7084732
			C0.568541,104.0946121,0,105.3802414,0,106.8115845c0,1.1399384,0.5371099,3.2083817,1.6113404,6.2024918l10.7907705,31.929512
			c0.2914152,0.8485107,0.6999664,1.9941711,1.2199326,3.4426422c0.5199671,1.4484863,1.1227942,2.7026978,1.8056059,3.7597809
			c0.6856775,1.0599213,1.5399122,1.8713074,2.5627012,2.4427032c1.0256557,0.5685425,2.2712975,0.8542328,3.7369156,0.8542328
			c2.8626919,0,4.8654308-0.9199371,6.0053558-2.7598267c1.1399384-1.8370361,2.1970139-4.5654449,3.1740971-8.176651
			l7.3709908-25.9755859l7.6166878,25.9755859c0.6513901,2.3427124,1.2542076,4.2454529,1.8084602,5.7110901
			c0.5513954,1.4656219,1.405632,2.7026825,2.5627022,3.7111969c1.154213,1.0085144,2.7426872,1.5141907,4.7597122,1.5141907
			c1.954174,0,3.4912224-0.4742584,4.6140137-1.4170532c1.1227837-0.9428101,1.9455986-2.0170288,2.4655647-3.2226715
			c0.5199661-1.202774,1.2542076-3.1569519,2.1970139-5.8596344l10.8879089-31.929512
			c1.0084991-2.7684097,1.5141907-4.833992,1.5141907-6.2024918c0-1.4970398-0.5856857-2.7969666-1.7570267-3.9054718
			c-1.1713715-1.1056519-2.5570068-1.6599045-4.1511917-1.6599045s-2.8141174,0.3656921-3.6626282,1.0999451
			c-0.8456573,0.731369-1.448494,1.5770493-1.8056183,2.5369873s-0.8285065,2.5141296-1.4170418,4.6625671l-8.788044,29.7839279
			l-7.9081039-27.6840515c-0.8142357-2.7655563-1.4484825-4.7111511-1.9055977-5.833931
			c-0.454258-1.1227875-1.2456436-2.1655731-2.3684235-3.1255341c-1.1227951-0.959938-2.6769829-1.4399109-4.6625786-1.4399109
			c-1.9513206,0-3.4912186,0.4799728-4.6140137,1.4399109c-1.1227837,0.9599609-1.8884563,1.9713135-2.2941418,3.0284042
			c-0.4085503,1.0570679-1.0342331,3.0340958-1.8798885,5.9310608l-7.908102,27.6840515l-8.6909065-29.7839279
			C12.0107145,106.5201797,11.1793346,104.3803101,10.3993845,103.126091"/>
    <path d="M391.6781616,37.8148727c1.0571289-2.5884323,2.5455933-4.574028,4.4683533-5.9568043
			c1.9198608-1.3827553,4.0997314-2.0741558,6.5424194-2.0741558c2.3427429,0,4.4997253,0.6742458,6.4682312,2.0255928
			c1.9684143,1.3513451,3.531189,3.3026543,4.6882629,5.8596535c1.1542358,2.5541267,1.7313232,5.6053734,1.7313232,9.1537437
			c0,3.7769127-0.5770874,6.9252892-1.7313232,9.4480019c-1.157074,2.5226936-2.7026978,4.3940048-4.6397095,5.6139374
			c-1.9370422,1.2199326-4.0769043,1.8313179-6.4196472,1.8313179c-2.3112488,0-4.4425659-0.6428146-6.396759-1.9284439
			c-1.9512939-1.2856483-3.4912109-3.1969604-4.6139832-5.7368088c-1.1228027-2.5398445-1.6827698-5.6139374-1.6827698-9.2280045
			C390.0925598,43.4059677,390.6210938,40.4032822,391.6781616,37.8148727 M418.0937195,72.0413742
			c1.1856689,1.3170624,2.6912842,1.9770279,4.5140381,1.9770279c1.8570557,0,3.3712463-0.6342468,4.542572-1.9027405
			c1.1713562-1.2713547,1.7570496-3.1740952,1.7570496-5.7139435V7.6166868c0-2.5055828-0.5456543-4.4025941-1.6370544-5.6882443
			C426.1818542,0.6428142,424.6276245,0,422.6077576,0c-2.0169983,0-3.571228,0.699944-4.6625977,2.0998757
			c-1.0913391,1.3999097-1.6341553,3.4654987-1.6341553,6.1996231V27.975462
			c-2.5084534-2.7341232-5.0797119-4.7597141-7.7138062-6.0767746c-2.6369934-1.3199368-5.8768311-1.9770279-9.7165833-1.9770279
			c-6.6424255,0-11.9964294,2.3255615-16.0647278,6.9795837c-4.0683289,4.6568546-6.1025085,11.1507587-6.1025085,19.4816875
			c0,3.9397583,0.5114136,7.6023903,1.5370178,10.9850388c1.0256958,3.3883781,2.531311,6.3339119,4.5169067,8.8394737
			c1.9855652,2.5055618,4.336853,4.434021,7.0567322,5.7853699c2.7169495,1.3484879,5.6710815,2.025589,8.8594666,2.025589
			c2.4084167,0,4.631134-0.3342514,6.6652832-0.9999313c2.0341797-0.6685333,3.9226379-1.6427689,5.6653748-2.9312592
			c1.7399292-1.2856445,3.5055237-2.9541168,5.2968445-5.0025558v1.3170624
			C416.3110046,68.8444366,416.9052429,70.7214661,418.0937195,72.0413742 M330.6475525,23.1414642
			c-0.5713806-1.1056519-1.3284912-1.9341755-2.2713013-2.4884281c-0.9456177-0.5542545-2.0026855-0.8313808-3.1740723-0.8313808
			c-1.9198608,0-3.4340515,0.6285381-4.5397339,1.8799019c-1.10849,1.2541962-1.6598816,3.1512299-1.6598816,5.688221v38.523407
			c0,2.605545,0.6170654,4.6054382,1.854187,6.0053482c1.2370605,1.39991,2.8141174,2.0998688,4.7368164,2.0998688
			c1.9856262,0,3.6055298-0.6771011,4.856842-2.025589c1.2542419-1.3513489,1.8799133-3.3769379,1.8799133-6.079628V49.2141838
			c0-5.4339638,0.3256836-9.1451797,0.9770508-11.1307716c0.911377-2.4741287,2.3427429-4.4197273,4.296936-5.8339348
			c1.9541321-1.4170437,4.1168823-2.125576,6.4938965-2.125576c3.6454773,0,6.0796509,1.1656361,7.29953,3.4912186
			c1.2199402,2.3284187,1.8313293,5.6882248,1.8313293,10.0822525v22.2158127c0,2.605545,0.6171265,4.6054382,1.854187,6.0053482
			s2.8483887,2.0998688,4.8339844,2.0998688c1.9541626,0,3.5397949-0.6828079,4.7597351-2.0513077
			c1.2227478-1.3656235,1.8312988-3.3855057,1.8312988-6.0539093V41.1118164c0-2.9312553-0.1314087-5.3396912-0.3913879-7.2281342
			c-0.2600098-1.8856125-0.8285522-3.6454983-1.7084961-5.2711163c-1.3656311-2.7998409-3.434082-4.9654121-6.1996155-6.4939022
			c-2.7684021-1.5313473-5.9082031-2.2970085-9.4223022-2.2970085c-3.6140747,0-6.8138733,0.7256641-9.5965576,2.17416
			c-2.7826843,1.448473-5.3453979,3.7197819-7.6881104,6.8110275v-1.6113415
			C331.5018005,25.6013165,331.216095,24.2499695,330.6475525,23.1414642 M291.9270325,59.5421295
			c-2.3912964,3.0426788-5.6054077,4.5654373-9.6422729,4.5654373c-2.6684265,0-4.9882812-0.6913795-6.9567261-2.0741539
			c-1.9713135-1.3856354-3.482666-3.3769379-4.5426025-5.9825058c-1.0570679-2.6026878-1.5856018-5.6482239-1.5856018-9.1308784
			c0-3.514061,0.5371094-6.5910301,1.6112976-9.2280045c1.0742493-2.6369972,2.6027527-4.6282997,4.5883179-5.9796467
			c1.9856262-1.351347,4.2797546-2.0284462,6.8853149-2.0284462c4.0368652,0,7.2509766,1.5141907,9.6422729,4.5425739
			c2.3941345,3.025528,3.5883484,7.2595634,3.5883484,12.6935234
			C295.5153809,52.2911301,294.321167,56.4994469,291.9270325,59.5421295 M307.0632935,35.9349709
			c-1.2199402-3.3197861-3.0027161-6.1853447-5.3454285-8.5937557c-2.3427124-2.4084339-5.159668-4.2626133-8.4480591-5.5653973
			c-3.2883606-1.3027611-6.9481812-1.9541626-10.9850464-1.9541626c-3.9711914,0-7.5995483,0.6428146-10.8879395,1.9284649
			c-3.2883606,1.2884827-6.0881958,3.1169434-8.396637,5.4939461c-2.3112793,2.3770027-4.0854797,5.2396832-5.3225403,8.5937786
			c-1.2370605,3.3512192-1.8570099,7.0481339-1.8570099,11.0821838c0,4.0054779,0.6114044,7.6595421,1.8313446,10.9621964
			c1.2227478,3.3026733,3.0112,6.1682129,5.3710632,8.5937805c2.3598633,2.42556,5.1511536,4.2883072,8.3737793,5.5882339
			c3.2226868,1.3027878,6.8510437,1.9541626,10.8879395,1.9541626c4.0682983,0,7.7309265-0.6428146,10.9850464-1.9284592
			c3.2540894-1.2856293,6.0567627-3.1312408,8.3995056-5.542511c2.3427124-2.408432,4.1340027-5.288269,5.3710938-8.6423416
			c1.2370911-3.3512421,1.8541565-7.0138702,1.8541565-10.9850616
			C308.8945618,42.9174118,308.2832031,39.2547798,307.0632935,35.9349709 M216.0058899,80.6351547
			c-0.6999664,1.1227875-1.4913483,1.9113083-2.3684387,2.3684158c-0.8799438,0.4542694-2.0827179,0.6828308-3.6140747,0.6828308
			c-0.6170959,0-1.3513489-0.0971451-2.1970062-0.294281c-0.6828003-0.1942749-1.3827667-0.2913971-2.0998688-0.2913971
			c-1.8227539,0-3.1969604,0.4142456-4.125473,1.2456284c-0.9284973,0.8285217-1.3913422,2.008461-1.3913422,3.5397797
			c0,2.2455902,0.9770966,3.791214,2.9312592,4.6368713c1.9513092,0.8456802,4.879715,1.2684937,8.7880402,1.2684937
			c4.0026093,0,7.1852722-0.6085281,9.5451508-1.8284607c2.359848-1.2227859,4.2540131-2.9712524,5.6882172-5.2511063
			c1.4313354-2.2770157,2.8969727-5.4196854,4.3940277-9.4223022l17.3818054-45.5058212
			c0.422821-1.1713676,0.779953-2.3255825,1.0742035-3.4655209c0.2914276-1.1399155,0.5028534-2.017025,0.6342468-2.6369743
			c0-1.0085239-0.2514038-1.968462-0.7570953-2.879837c-0.5056915-0.9113731-1.2199249-1.6370373-2.1484375-2.1741581
			c-0.9285126-0.5370998-1.8970184-0.8056602-2.9055176-0.8056602c-1.3999329,0-2.4827118,0.2456951-3.2455139,0.7342529
			c-0.765686,0.4885349-1.4884949,1.4313412-2.1741638,2.8312511c-0.6828156,1.39991-1.4485016,3.3369408-2.2941589,5.8110695
			l-10.693634,30.5153103l-11.276474-32.812294c-0.7513733-2.2770195-1.6113281-4.0283394-2.5884094-5.2482719
			c-0.9770813-1.2199116-2.4255676-1.831316-4.3454437-1.831316c-1.1085052,0-2.1741638,0.294281-3.1998138,0.8799438
			c-1.0228119,0.5856838-1.8284607,1.3656445-2.4141541,2.3427162c-0.5885315,0.9770908-0.8799438,2.0341797-0.8799438,3.1740952
			c0,1.0742188,0.5028381,2.7998409,1.5141907,5.1768436l16.4047546,41.3060913l-1.2199402,2.9769592
			C217.5115051,77.8581772,216.7058563,79.512352,216.0058899,80.6351547 M164.300415,32.4437523
			c2.1312866-2.2941513,4.856842-3.4426556,8.176651-3.4426556c3.4826508,0,6.2910461,1.1313725,8.422348,3.3940907
			c2.1313019,2.262722,3.3598022,5.671093,3.6855011,10.2279663h-24.1671295
			C160.8720398,38.1319962,162.1662598,34.7379036,164.300415,32.4437523 M194.5957336,48.7027817
			c1.9198914-0.9913673,2.879837-3.1655273,2.879837-6.5195999c0-3.6112137-0.9285126-7.159584-2.7826843-10.6422367
			c-1.854187-3.4826317-4.6483002-6.3224716-8.3737946-8.519474c-3.7283478-2.1970253-8.1938019-3.2969437-13.4020538-3.2969437
			c-4.0026245,0-7.6509705,0.6428146-10.9364929,1.9284439c-3.2883759,1.2856503-6.0539093,3.1340981-8.3023529,5.5425301
			c-2.2455902,2.4084339-3.9540558,5.2968159-5.1253967,8.6651859c-1.1713715,3.3712273-1.7570343,7.0252914-1.7570343,10.9622154
			c0,8.3651962,2.374115,14.9905128,7.1281281,19.8730736c4.7511444,4.8825607,11.4078979,7.3224258,19.9702454,7.3224258
			c3.74263,0,7.0538483-0.488533,9.9336853-1.4656219c2.8826904-0.9742432,5.2739716-2.2027359,7.1795654-3.6855011
			c1.9027405-1.4799042,3.3255157-3.025528,4.2711792-4.6368637c0.9427795-1.6113205,1.417038-3.0198174,1.417038-4.2254524
			c0-1.3656425-0.4256744-2.4227104-1.271347-3.1740952c-0.8456573-0.7485275-1.9513092-1.1228027-3.3197937-1.1228027
			c-1.2684937,0-2.245575,0.294281-2.9283905,0.8799629c-1.6599121,1.5627556-3.0112457,2.7998199-4.0540466,3.7111969
			c-1.0399475,0.9113731-2.1798706,1.7656174-3.4169464,2.5627098s-2.5141296,1.3827782-3.831192,1.7570305
			c-1.3199158,0.3742523-2.7769775,0.5628204-4.3711548,0.5628204c-2.3770142,0-4.5483093-0.5856857-6.5196381-1.7570305
			c-1.9684296-1.1742249-3.5454865-2.9141006-4.7339935-5.2254066c-1.1884918-2.3112869-1.799881-4.9796906-1.8313141-8.0080948
			h26.0727234C189.9731598,50.1912537,192.6730042,49.6970062,194.5957336,48.7027817 M101.4356079,37.8634377
			c1.1399307-2.6198425,2.7026901-4.6225929,4.6883087-6.0053692c1.9855881-1.3827553,4.2483139-2.0741558,6.7853012-2.0741558
			c2.4741287,0,4.6397018,0.6914005,6.4938812,2.0741558c1.8570404,1.3827763,3.2883759,3.3455296,4.2969055,5.8825207
			c1.0084991,2.5398483,1.5141907,5.5682297,1.5141907,9.0823135c0,5.4368172-1.2113647,9.6108475-3.6369324,12.5249481
			c-2.4255676,2.9112701-5.3139725,4.368309-8.668045,4.368309c-3.9369202,0-7.1195831-1.4227753-9.5451508-4.2711601
			c-2.4227066-2.8484039-3.6369324-6.9253082-3.6369324-12.2307091
			C99.7271347,43.6002235,100.2956924,40.4832802,101.4356079,37.8634377 M97.4330063,1.9770062
			C96.3273544,0.6599466,94.7474442,0,92.6961365,0c-1.9513092,0-3.4740677,0.6913778-4.5654373,2.0741553
			c-1.088501,1.3856328-1.6341858,3.4255013-1.6341858,6.1281943v58.1993675c0,2.5084152,0.5599594,4.4025955,1.6827469,5.6882248
			c1.1256561,1.2856445,2.6284256,1.9284592,4.5168762,1.9284592c1.8570328,0,3.3855057-0.6428146,4.591156-1.9284592
			c1.2027817-1.2856293,1.8055954-3.1798096,1.8055954-5.6882248v-1.3170624
			c1.4656296,1.6913147,2.6455612,2.9626694,3.5398026,3.8083496c0.8942261,0.8456573,1.9770126,1.6684647,3.2483597,2.4655609
			c1.2684937,0.7970963,2.8055573,1.4399033,4.6140289,1.9284439c1.8055878,0.4885559,3.7340546,0.7313919,5.7853699,0.7313919
			c3.3512192,0,6.4195938-0.6771011,9.2022858-2.025589c2.7827072-1.3513489,5.1511154-3.2626572,7.1053085-5.7368088
			c1.9513092-2.4741287,3.442627-5.3968163,4.4654388-8.7651901c1.02565-3.3683472,1.5399017-7.0709991,1.5399017-11.1078835
			c0-5.4682465-0.9199371-10.1965294-2.7598419-14.1820183c-1.8398743-3.9883213-4.4254303-7.031002-7.7623749-9.1308784
			s-7.219574-3.1483746-11.6450272-3.1483746c-3.8426285,0-7.062439,0.6913776-9.6679764,2.0741558
			c-2.6027145,1.3827782-5.1597137,3.3769379-7.6652756,5.9796467V7.6166868
			C99.0928879,5.1739664,98.5386353,3.2940876,97.4330063,1.9770062"/>
    <path d="M369.1506653,212.8426361c0.3314514-0.2999725,0.4971313-0.7142334,0.4971313-1.2427673
			c0-0.4628448-0.1656799-0.8542328-0.4971313-1.1770782c-0.3314209-0.3256989-0.7313843-0.4856873-1.1999207-0.4856873
			c-0.4685669,0-0.8628235,0.1628571-1.1828003,0.491394c-0.3199768,0.3256989-0.4799805,0.7171021-0.4799805,1.1713715
			c0,0.5342407,0.1685791,0.9513702,0.5028687,1.2484894c0.3342285,0.2971191,0.7313843,0.4485474,1.1942139,0.4485474
			C368.4306946,213.2969055,368.8192444,213.1454773,369.1506653,212.8426361 M354.7315369,201.6661682
			c-0.1285706-0.2514038-0.3028564-0.4428253-0.5171204-0.5685272c-0.2171021-0.1257172-0.4570618-0.1885681-0.725647-0.1885681
			c-0.4399719,0-0.785675,0.1428528-1.0399475,0.4285431c-0.2514038,0.2857056-0.3771362,0.7199554-0.3771362,1.2999268v8.805191
			c0,0.5942383,0.1400452,1.0542145,0.4228821,1.3742065c0.2828369,0.3199768,0.6427917,0.4799652,1.0827637,0.4799652
			c0.4542542,0,0.8228149-0.157135,1.1113586-0.465683c0.2857056-0.3085632,0.4285583-0.7713928,0.4285583-1.3884888v-3.816925
			c0-1.2427826,0.0742798-2.0912933,0.2228088-2.5426941c0.2085876-0.5656891,0.5371399-1.0113678,0.9828186-1.3342133
			c0.4456787-0.3256836,0.9399414-0.485672,1.4827576-0.485672c0.834259,0,1.3913574,0.265686,1.6684875,0.7970886
			c0.2799988,0.5314026,0.4199829,1.2999115,0.4199829,2.3055725v5.0768433c0,0.5942383,0.1399841,1.0542145,0.422821,1.3742065
			c0.2828369,0.3199768,0.6513672,0.4799652,1.1056519,0.4799652c0.4456787,0,0.8085022-0.157135,1.088501-0.471405
			c0.2799683-0.3114014,0.4171143-0.7713776,0.4171143-1.3827667v-5.6682281c0-0.671402-0.0285645-1.2199402-0.0885925-1.6513367
			c-0.059967-0.4313965-0.1885376-0.8342438-0.3913879-1.2056427c-0.3113708-0.6399689-0.7828064-1.1342163-1.4170532-1.4856262
			c-0.6313782-0.3485413-1.3484802-0.5228271-2.1541443-0.5228271c-0.8256836,0-1.5541992,0.1657104-2.1912842,0.4942627
			c-0.637146,0.3314056-1.2227783,0.8513794-1.7570496,1.5570374v-0.3685455
			C354.9286804,202.2289886,354.8629761,201.9204407,354.7315369,201.6661682 M342.0094299,203.7917633
			c0.4885559-0.5228271,1.1113892-0.785675,1.8684692-0.785675c0.7971191,0,1.4399109,0.2571411,1.9255981,0.7742462
			c0.4885559,0.5171051,0.7685242,1.2970581,0.842804,2.339859h-5.522522
			C341.2266541,205.0916748,341.5237427,204.3174438,342.0094299,203.7917633 M348.9347534,207.5086823
			c0.4399719-0.225708,0.6571045-0.7228088,0.6571045-1.4884796c0-0.8256683-0.2114258-1.6370544-0.6342468-2.4341431
			c-0.4256897-0.7970886-1.0627747-1.4456329-1.9141846-1.9484558c-0.8513794-0.4999695-1.874176-0.7513885-3.0626831-0.7513885
			c-0.9170837,0-1.7484741,0.1457062-2.4998474,0.4399719c-0.7513733,0.294281-1.3856201,0.7171021-1.8970337,1.2656403
			c-0.5142212,0.5514069-0.9056091,1.2113647-1.1741943,1.9827423c-0.2657166,0.7685242-0.3999634,1.6056213-0.3999634,2.5055695
			c0,1.9113007,0.5428162,3.4255066,1.628479,4.542572c1.0856323,1.1142273,2.6083984,1.6741943,4.5654297,1.6741943
			c0.8542175,0,1.6112976-0.1142883,2.2712708-0.3371277c0.657135-0.2228394,1.2056274-0.5028229,1.6399231-0.842804
			c0.4342346-0.3371277,0.7599182-0.691391,0.9770813-1.0599365c0.2142639-0.3685455,0.3228455-0.6885223,0.3228455-0.9656525
			c0-0.3114166-0.0971375-0.5542603-0.2914124-0.7228241c-0.1914368-0.1714172-0.4456787-0.2571259-0.7571106-0.2571259
			c-0.2914124,0-0.5142212,0.0657196-0.6713867,0.1999969c-0.3771362,0.3571167-0.6856995,0.6399536-0.9256897,0.8485107
			c-0.2370911,0.2085724-0.4971008,0.402832-0.7799377,0.5856934c-0.2828369,0.1828308-0.5742493,0.3171234-0.8770447,0.4028168
			c-0.3000183,0.0857239-0.6342468,0.1285706-0.9971008,0.1285706c-0.5456848,0-1.039978-0.1342773-1.491333-0.402832
			c-0.451416-0.2685547-0.8113708-0.6656799-1.0827942-1.1942139s-0.411438-1.1399384-0.4171448-1.8313141h5.9596252
			C347.877655,207.8486633,348.4947815,207.7372437,348.9347534,207.5086823 M332.8042603,212.8169403
			c0.2771301,0.3199768,0.6400146,0.4799652,1.0856628,0.4799652c0.4542542,0,0.8256836-0.157135,1.1113892-0.465683
			c0.285675-0.3085632,0.4285278-0.7713928,0.4285278-1.3884888V198.229248c0-0.6171112-0.1399841-1.0799408-0.422821-1.3884888
			c-0.2828369-0.3085632-0.6542358-0.4628296-1.1170959-0.4628296c-0.4599609,0-0.8256531,0.1542664-1.0970764,0.4685364
			c-0.2714233,0.3114166-0.4085083,0.774231-0.4085083,1.382782v13.2134857
			C332.3843384,212.036972,332.5243225,212.4969482,332.8042603,212.8169403 M326.6103516,212.8169403
			c0.2771301,0.3199768,0.6400146,0.4799652,1.0856628,0.4799652c0.4542542,0,0.8256836-0.157135,1.1113892-0.465683
			c0.285675-0.3085632,0.4285278-0.7713928,0.4285278-1.3884888V198.229248c0-0.6171112-0.1399841-1.0799408-0.422821-1.3884888
			c-0.2828369-0.3085632-0.6542664-0.4628296-1.1170959-0.4628296c-0.4599609,0-0.8256531,0.1542664-1.0970764,0.4685364
			c-0.2714233,0.3114166-0.4085083,0.774231-0.4085083,1.382782v13.2134857
			C326.1904297,212.036972,326.3303833,212.4969482,326.6103516,212.8169403 M319.9136353,209.985672
			c-0.5485535,0.6970978-1.2828064,1.0456543-2.2055969,1.0456543c-0.6085205,0-1.1399231-0.1599884-1.5884705-0.4742584
			c-0.4513855-0.3171234-0.7970581-0.774231-1.0399475-1.3684845c-0.2399597-0.5942535-0.3628235-1.2913513-0.3628235-2.0855865
			c0-0.8056793,0.1228638-1.5084839,0.3685608-2.1113129c0.245697-0.6028137,0.5971069-1.0570831,1.0513306-1.3656311
			c0.451416-0.308548,0.9771118-0.4628296,1.5713501-0.4628296c0.9227905,0,1.6570435,0.3456879,2.2055969,1.0370789
			c0.5456543,0.691391,0.8199463,1.6598969,0.8199463,2.9026947
			C320.7335815,208.3286285,320.4592896,209.2914276,319.9136353,209.985672 M323.3734131,204.5917206
			c-0.2799377-0.759964-0.6856384-1.4142151-1.2227478-1.9656067c-0.5342407-0.5513916-1.1799622-0.9742279-1.9313354-1.271347
			c-0.7514038-0.2971344-1.588501-0.445694-2.5112915-0.445694c-0.9056702,0-1.73703,0.1457062-2.4884338,0.4399719
			c-0.7513733,0.2942657-1.3913269,0.7113953-1.9198608,1.2542114c-0.5285339,0.5428314-0.9313965,1.1999359-1.2142334,1.9655914
			c-0.2828369,0.7656708-0.4256592,1.6113434-0.4256592,2.5341492c0,0.9142303,0.1399841,1.7484589,0.4199524,2.5055542
			c0.2771301,0.7542419,0.6856995,1.408493,1.225647,1.962738c0.5400085,0.5542603,1.1770935,0.97995,1.9141541,1.2770691
			c0.7371521,0.2971191,1.5656433,0.4485474,2.4884338,0.4485474c0.9313965,0,1.7684937-0.1485596,2.5112915-0.4428406
			c0.7456665-0.2942657,1.3856201-0.7142334,1.9198914-1.265625c0.5370789-0.5514069,0.9456482-1.2085114,1.2284851-1.9770355
			c0.2828369-0.7656708,0.422821-1.6027527,0.422821-2.5084076
			C323.7905273,206.1858978,323.6505432,205.3488159,323.3734131,204.5917206 M295.432251,201.337616
			c-0.177124-0.2856903-0.5199585-0.4285431-1.0256348-0.4285431c-0.3800049,0-0.6999817,0.1285706-0.9599304,0.3885498
			c-0.2600098,0.2628479-0.391449,0.554245-0.391449,0.8827972c0,0.2599945,0.1228638,0.7313843,0.3685608,1.4170685
			l2.4684143,7.2995605c0.0657349,0.1914062,0.1599731,0.4542542,0.2771301,0.7856598
			c0.1199951,0.3314209,0.2571411,0.6171112,0.4142761,0.8599548c0.1542664,0.2428436,0.3514099,0.4285431,0.5856628,0.5571136
			c0.2342834,0.1314087,0.519989,0.1971283,0.8542175,0.1971283c0.6542664,0,1.1113892-0.2114105,1.3713989-0.6313934
			c0.2599487-0.4199677,0.5028076-1.0428009,0.725647-1.868454l1.6856079-5.9396515l1.7398682,5.9396515
			c0.1485901,0.534256,0.2885742,0.9685059,0.4142761,1.3056335c0.1257324,0.334259,0.3199768,0.6171112,0.5856934,0.8456573
			c0.2628174,0.2314148,0.6256714,0.3485565,1.088501,0.3485565c0.4457092,0,0.7971191-0.1085663,1.0542297-0.3256989
			c0.2571106-0.2142639,0.4428406-0.4599762,0.5628357-0.7370911c0.1199646-0.2742767,0.285675-0.7199707,0.5028076-1.3370667
			l2.4884338-7.2995605c0.2314148-0.6313934,0.3457031-1.1056519,0.3457031-1.4170685
			c0-0.3428345-0.1343079-0.6399536-0.3999634-0.8942261c-0.2685852-0.2514038-0.5856934-0.377121-0.951416-0.377121
			c-0.3628235,0-0.6428223,0.0828552-0.834198,0.2514191c-0.1943054,0.1656952-0.3314514,0.3599701-0.4142761,0.5799561
			c-0.0828857,0.2171326-0.1885986,0.5742645-0.3228455,1.0656586l-2.0084839,6.8052979l-1.8084412-6.3253326
			c-0.1856995-0.6342468-0.3313904-1.0770721-0.4371033-1.334198c-0.1028442-0.2571411-0.2828369-0.4942627-0.539978-0.7142487
			c-0.2571106-0.219986-0.6113892-0.3285522-1.0656433-0.3285522c-0.4457092,0-0.7971191,0.1085663-1.0542297,0.3285522
			s-0.4313965,0.4485474-0.5256958,0.691391c-0.0914307,0.2428436-0.2371216,0.6942444-0.4285278,1.3570557l-1.8084412,6.3253326
			l-1.9856262-6.8052979C295.8007812,202.1118622,295.6122437,201.6233215,295.432251,201.337616 M277.1590576,196.8464661
			c-0.2713928-0.31427-0.6485291-0.4685364-1.1342163-0.4685364c-0.4742432,0-0.8456726,0.1542664-1.1085205,0.4628296
			c-0.265686,0.308548-0.3970947,0.7713776-0.3970947,1.3884888v13.2134857c0,1.2342072,0.5028381,1.8541718,1.5056152,1.8541718
			c0.4856873,0,0.8628235-0.1599884,1.1342163-0.4742584c0.2714233-0.3171234,0.4085388-0.7770996,0.4085388-1.3799133v-4.0283356
			c0-1.1599274,0.0799866-1.9684448,0.2428589-2.4227142c0.2171326-0.534256,0.5428162-0.957077,0.9770508-1.2656403
			c0.4371338-0.308548,0.9256897-0.4628143,1.4685059-0.4628143c0.8113708,0,1.362793,0.2628326,1.6513367,0.7856598
			c0.2913818,0.5256805,0.4342651,1.2742004,0.4342651,2.2484283v5.1454163c0,1.2342072,0.5028076,1.8541718,1.5084534,1.8541718
			c0.4599609,0,0.8313904-0.157135,1.1085205-0.471405c0.2799988-0.3114014,0.4199829-0.7713776,0.4199829-1.3827667v-5.836792
			c0-0.5885468-0.0371399-1.1056519-0.1114197-1.5570526c-0.0742798-0.4485474-0.2199707-0.8571014-0.4342346-1.2227783
			c-0.342865-0.6228333-0.81427-1.0999451-1.4142456-1.4284973c-0.5971069-0.3256836-1.285614-0.4885406-2.0570068-0.4885406
			c-0.5142517,0-0.9942017,0.062851-1.4399109,0.1942749c-0.4456787,0.131424-0.8542175,0.3256989-1.2227783,0.5856781
			c-0.3685303,0.2599792-0.7456665,0.6142578-1.1313782,1.0599365v-4.5197144
			C277.5675964,197.620697,277.430481,197.1578827,277.1590576,196.8464661 M272.1307678,208.6200409
			c-0.245697-0.2828369-0.5542603-0.4256897-0.9256287-0.4256897c-0.3114319,0-0.5770874,0.0971375-0.7914124,0.2914124
			c-0.2171021,0.1942749-0.4170837,0.4599762-0.6028137,0.8028107c-0.3342285,0.5799561-0.7199402,1.0113678-1.157074,1.2942047
			c-0.4342346,0.2828369-0.9570618,0.4256897-1.5656128,0.4256897c-0.4542542,0-0.8713684-0.088562-1.2513428-0.2628326
			c-0.3800049-0.1742859-0.7028198-0.4314117-0.9713745-0.7713928c-0.2685547-0.3371277-0.471405-0.7456665-0.6142578-1.2256317
			c-0.1399841-0.4799805-0.2113953-1.005661-0.2113953-1.5799103c0-1.2199249,0.2742615-2.182724,0.8256531-2.8855438
			c0.5513916-0.7028046,1.2770691-1.0542145,2.1770325-1.0542145c0.6256409,0,1.1399231,0.1428375,1.5456238,0.4256744
			c0.4056702,0.2828522,0.79422,0.7056732,1.1656494,1.2713623c0.2085571,0.2885437,0.3970947,0.4999695,0.5628052,0.6313934
			c0.1685791,0.1285553,0.3799438,0.1942596,0.6314087,0.1942596c0.3885193,0,0.7170715-0.1257019,0.9884949-0.3799744
			c0.2714233-0.2514038,0.4056702-0.5599518,0.4056702-0.9256439c0-0.357132-0.1199646-0.7428131-0.3628235-1.1542206
			c-0.2399902-0.4142609-0.5914001-0.8028107-1.0485229-1.1685028c-0.4570923-0.3628387-1.0142212-0.6599579-1.6741943-0.8913727
			c-0.657074-0.2314148-1.3799133-0.3457031-2.1684265-0.3457031c-1.2742004,0-2.3684082,0.2628479-3.2826233,0.785675
			c-0.9142456,0.5256805-1.6141968,1.2684937-2.0970459,2.2255859c-0.4856873,0.9599304-0.7256775,2.0655823-0.7256775,3.3169403
			c0,1.8455963,0.5285339,3.3140869,1.5856018,4.4140167c1.0542297,1.0970764,2.5255737,1.6456146,4.4083557,1.6456146
			c0.882782,0,1.6799011-0.1199951,2.3855591-0.3571167c0.7085266-0.2399902,1.2941895-0.5542603,1.7598877-0.9428101
			c0.4628296-0.3914032,0.8085327-0.8028107,1.0370789-1.2342072c0.2256775-0.4313965,0.3399963-0.8370972,0.3399963-1.2170715
			C272.4993591,209.2028656,272.3764954,208.9028778,272.1307678,208.6200409 M257.9802246,199.0948944
			c0.2970886-0.265686,0.4456482-0.6313782,0.4456482-1.0999298c0-0.4828186-0.1513977-0.8513794-0.4570618-1.1056519
			c-0.3057251-0.2514038-0.6542664-0.377121-1.0485229-0.377121c-0.4085693,0-0.7685242,0.137146-1.0770721,0.4171295
			c-0.3085632,0.2799683-0.4628448,0.6342468-0.4628448,1.0656433c0,0.4771118,0.1513977,0.8456726,0.451416,1.1056519
			c0.3027954,0.2599792,0.6656494,0.3914032,1.088501,0.3914032
			C257.3287964,199.4920197,257.6831055,199.3577423,257.9802246,199.0948944 M257.9916382,201.3661957
			c-0.2914124-0.3056946-0.657074-0.4571228-1.1056519-0.4571228c-0.4456787,0-0.8085022,0.1514282-1.088501,0.4571228
			c-0.2771301,0.3056946-0.4171143,0.7570953-0.4171143,1.3599091v8.716629c0,0.5942383,0.1399841,1.0542145,0.4171143,1.3742065
			c0.2799988,0.3199768,0.6428223,0.4799652,1.088501,0.4799652c0.4485779,0,0.8142395-0.157135,1.1056519-0.471405
			c0.2913818-0.3114014,0.4342346-0.7713776,0.4342346-1.3827667v-8.805191
			C258.4258728,202.0947266,258.28302,201.6718903,257.9916382,201.3661957 M249.6035614,212.8169403
			c0.280014,0.3199768,0.6428375,0.4799652,1.088501,0.4799652c0.4542999,0,0.8256683-0.157135,1.1113892-0.465683
			c0.2856598-0.3085632,0.4285278-0.7713928,0.4285278-1.3884888V198.229248c0-0.6171112-0.1399841-1.0799408-0.422821-1.3884888
			c-0.2828369-0.3085632-0.6542511-0.4628296-1.1170959-0.4628296c-0.4599609,0-0.8256683,0.1542664-1.0970764,0.4685364
			c-0.2742615,0.3114166-0.4085236,0.774231-0.4085236,1.382782v13.2134857
			C249.1864624,212.036972,249.3264465,212.4969482,249.6035614,212.8169403 M245.058136,212.9940643
			c0.1999969,0.1999969,0.4856873,0.3028412,0.8571014,0.3028412c0.4314117,0,0.7799377-0.1399994,1.045639-0.4199829
			c0.2628479-0.2799835,0.3942719-0.6599579,0.3942719-1.1427917c0-0.1714172-0.0485687-0.3513947-0.1485748-0.5428162
			c-0.102829-0.1885529-0.2685394-0.465683-0.4971008-0.8313751l-3.1255341-4.9111328l1.6170502-1.4827728
			c0.8256683-0.7428131,1.2399292-1.33992,1.2399292-1.785614c0-0.3656769-0.1257019-0.6685181-0.3799896-0.9085083
			c-0.2514038-0.2428436-0.5685272-0.3628387-0.9484863-0.3628387c-0.3200073,0-0.5914001,0.0800018-0.8142548,0.245697
			c-0.2228546,0.1628571-0.5456848,0.4685516-0.9713593,0.9142303l-3.4255219,3.5940857v-7.3881378
			c0-0.6256714-0.1371307-1.0970764-0.4142456-1.4170532c-0.2742767-0.3199768-0.6457062-0.4799652-1.1142273-0.4799652
			c-0.4857025,0-0.8571014,0.177124-1.1170654,0.5285339c-0.2599945,0.3542633-0.3914185,0.868515-0.3914185,1.5456238v12.9906464
			c0,0.6113892,0.1342773,1.0713654,0.402832,1.3827667c0.2685699,0.31427,0.6371002,0.471405,1.1056519,0.471405
			c0.3999786,0,0.7570953-0.1599884,1.0656586-0.4742584c0.3085327-0.3171234,0.4628143-0.7685242,0.4628143-1.3570709v-2.422699
			l1.6513367-1.5627594l2.6884155,4.4197235C244.5838776,212.4283752,244.8553009,212.7940674,245.058136,212.9940643
			 M230.3247375,206.5715942c0.0599976-0.6371002,0.1685638-1.1856384,0.3256989-1.6456146
			c0.1542816-0.4628296,0.3742523-0.8085175,0.6571045-1.0428009c0.2828369-0.2342682,0.6485291-0.3513947,1.0942078-0.3513947
			c0.3285522,0,0.7056885,0.0685577,1.1313782,0.2056885c0.4285431,0.1371307,0.6999359,0.2057037,0.8113708,0.2057037
			c0.2971344,0,0.5742645-0.1199951,0.8313751-0.3628235c0.2542877-0.2399902,0.382843-0.5485535,0.382843-0.9199524
			c0-0.5285339-0.2999878-0.9513702-0.9028015-1.271347c-0.602829-0.3199921-1.2227936-0.4799805-1.8627472-0.4799805
			c-0.6399689,0-1.1513672,0.1599884-1.5342102,0.4799805c-0.3856659,0.3199768-0.7570953,0.7913666-1.1227722,1.4170532
			c-0.0228424-0.6256866-0.1457214-1.0970764-0.3685455-1.4170532c-0.2228546-0.3199921-0.5885468-0.4799805-1.0942383-0.4799805
			c-0.9885101,0-1.4827576,0.6828156-1.4827576,2.0513v8.4823608c0,0.6113892,0.1399841,1.0713654,0.4228363,1.3827667
			c0.2828369,0.31427,0.6428223,0.471405,1.0827942,0.471405c0.4456787,0,0.8142242-0.157135,1.1056519-0.465683
			c0.2885437-0.3085632,0.4342499-0.7713928,0.4342499-1.3884888v-2.5455627
			C230.2361755,207.9829407,230.2675934,207.2086945,230.3247375,206.5715942 M223.6194305,199.0948944
			c0.2971191-0.265686,0.4456787-0.6313782,0.4456787-1.0999298c0-0.4828186-0.151413-0.8513794-0.4570923-1.1056519
			c-0.3057098-0.2514038-0.6542664-0.377121-1.0485229-0.377121c-0.4114075,0-0.7685242,0.137146-1.0770874,0.4171295
			c-0.308548,0.2799683-0.4628296,0.6342468-0.4628296,1.0656433c0,0.4771118,0.1485748,0.8456726,0.451416,1.1056519
			c0.2999725,0.2599792,0.662796,0.3914032,1.088501,0.3914032
			C222.9680328,199.4920197,223.3222961,199.3577423,223.6194305,199.0948944 M223.6308594,201.3661957
			c-0.2914124-0.3056946-0.6599579-0.4571228-1.1056519-0.4571228s-0.8085175,0.1514282-1.088501,0.4571228
			s-0.4171295,0.7570953-0.4171295,1.3599091v8.716629c0,0.5942383,0.137146,1.0542145,0.4171295,1.3742065
			c0.2799835,0.3199768,0.642807,0.4799652,1.088501,0.4799652s0.8142395-0.157135,1.1056519-0.471405
			c0.2885437-0.3114014,0.4342499-0.7713776,0.4342499-1.3827667v-8.805191
			C224.0651093,202.0947266,223.9194031,201.6718903,223.6308594,201.3661957 M203.7663422,201.337616
			c-0.1799927-0.2856903-0.5228119-0.4285431-1.0285034-0.4285431c-0.3799896,0-0.6999664,0.1285706-0.9599457,0.3885498
			c-0.2599945,0.2628479-0.3914032,0.554245-0.3914032,0.8827972c0,0.2599945,0.1228485,0.7313843,0.3685455,1.4170685
			l2.4684143,7.2995605c0.0657196,0.1914062,0.1599884,0.4542542,0.2771301,0.7856598
			c0.1199951,0.3314209,0.2571411,0.6171112,0.4142761,0.8599548c0.1571198,0.2428436,0.3514099,0.4285431,0.5856628,0.5571136
			c0.2342682,0.1314087,0.5199738,0.1971283,0.8542328,0.1971283c0.6542664,0,1.1113586-0.2114105,1.3713531-0.6313934
			c0.2599792-0.4199677,0.5028229-1.0428009,0.7256775-1.868454l1.6855927-5.9396515l1.7398987,5.9396515
			c0.1485748,0.534256,0.288559,0.9685059,0.4142761,1.3056335c0.1257019,0.334259,0.3199768,0.6171112,0.5856628,0.8456573
			c0.2628479,0.2314148,0.6256866,0.3485565,1.0885162,0.3485565c0.4456787,0,0.7970886-0.1085663,1.0542145-0.3256989
			c0.2571411-0.2142639,0.4457092-0.4599762,0.5628357-0.7370911c0.1199951-0.2742767,0.2856903-0.7199707,0.5028229-1.3370667
			l2.4884186-7.2995605c0.2314148-0.6313934,0.3456879-1.1056519,0.3456879-1.4170685
			c0-0.3428345-0.1342773-0.6399536-0.3999786-0.8942261c-0.2685394-0.2514038-0.5856628-0.377121-0.9485016-0.377121
			c-0.3657074,0-0.6456909,0.0828552-0.8370819,0.2514191c-0.1942749,0.1656952-0.3314209,0.3599701-0.4142761,0.5799561
			c-0.0828552,0.2171326-0.1885681,0.5742645-0.3228302,1.0656586l-2.0084686,6.8052979l-1.8084412-6.3253326
			c-0.1857147-0.6342468-0.3314209-1.0770721-0.4371185-1.334198c-0.1028595-0.2571411-0.2828369-0.4942627-0.539978-0.7142487
			c-0.2571106-0.219986-0.6113892-0.3285522-1.0656586-0.3285522c-0.4456787,0-0.7970886,0.1085663-1.0541992,0.3285522
			c-0.2571411,0.219986-0.4314117,0.4485474-0.5256805,0.691391c-0.0914459,0.2428436-0.2342834,0.6942444-0.4285583,1.3570557
			l-1.8084717,6.3253326l-1.9855957-6.8052979C204.1320343,202.1118622,203.9434662,201.6233215,203.7663422,201.337616
			 M189.8271637,206.5715942c0.0571594-0.6371002,0.1657257-1.1856384,0.3228607-1.6456146
			c0.157135-0.4628296,0.3742523-0.8085175,0.6570892-1.0428009c0.2828369-0.2342682,0.6485443-0.3513947,1.094223-0.3513947
			c0.3285522,0,0.7056885,0.0685577,1.1342163,0.2056885c0.4256897,0.1371307,0.697113,0.2057037,0.8085327,0.2057037
			c0.2971191,0,0.574234-0.1199951,0.8313751-0.3628235c0.2571259-0.2399902,0.3856812-0.5485535,0.3856812-0.9199524
			c0-0.5285339-0.3028259-0.9513702-0.9056396-1.271347c-0.6028442-0.3199921-1.2227936-0.4799805-1.8627472-0.4799805
			c-0.6399689,0-1.1513672,0.1599884-1.5342102,0.4799805c-0.382843,0.3199768-0.7570953,0.7913666-1.1227722,1.4170532
			c-0.0228729-0.6256866-0.1457214-1.0970764-0.368576-1.4170532c-0.2228241-0.3199921-0.5856628-0.4799805-1.0942078-0.4799805
			c-0.9885101,0-1.4827728,0.6828156-1.4827728,2.0513v8.4823608c0,0.6113892,0.1399994,1.0713654,0.4228363,1.3827667
			c0.2828369,0.31427,0.6456757,0.471405,1.0827789,0.471405c0.4485626,0,0.8142548-0.157135,1.1056519-0.465683
			c0.2914276-0.3085632,0.4342651-0.7713928,0.4342651-1.3884888v-2.5455627
			C189.7357483,207.9829407,189.7671814,207.2086945,189.8271637,206.5715942 M176.5622559,203.7917633
			c0.4885559-0.5228271,1.1113586-0.785675,1.868454-0.785675c0.7970886,0,1.4399261,0.2571411,1.9256134,0.7742462
			c0.4885406,0.5171051,0.7685089,1.2970581,0.842804,2.339859h-5.5253754
			C175.7794342,205.0916748,176.0737152,204.3174438,176.5622559,203.7917633 M183.4875641,207.5086823
			c0.4371185-0.225708,0.6570892-0.7228088,0.6570892-1.4884796c0-0.8256683-0.2114105-1.6370544-0.6342468-2.4341431
			c-0.4256744-0.7970886-1.0627747-1.4456329-1.9141693-1.9484558c-0.8513641-0.4999695-1.8741608-0.7513885-3.0655212-0.7513885
			c-0.9142303,0-1.7484589,0.1457062-2.4998474,0.4399719c-0.7513885,0.294281-1.382782,0.7171021-1.8970337,1.2656403
			c-0.5113983,0.5514069-0.9028168,1.2113647-1.1713715,1.9827423c-0.265686,0.7685242-0.3999786,1.6056213-0.3999786,2.5055695
			c0,1.9113007,0.5428314,3.4255066,1.628479,4.542572c1.0856628,1.1142273,2.6084137,1.6741943,4.5654449,1.6741943
			c0.8542328,0,1.6113281-0.1142883,2.2713013-0.3371277c0.6570892-0.2228394,1.202774-0.5028229,1.6398926-0.842804
			c0.4342651-0.3371277,0.7599487-0.691391,0.9770966-1.0599365c0.2142639-0.3685455,0.3228302-0.6885223,0.3228302-0.9656525
			c0-0.3114166-0.0971527-0.5542603-0.2914276-0.7228241c-0.191391-0.1714172-0.4456787-0.2571259-0.7570953-0.2571259
			c-0.2913971,0-0.5142517,0.0657196-0.6713867,0.1999969c-0.3799591,0.3571167-0.6885223,0.6399536-0.9256439,0.8485107
			c-0.2371368,0.2085724-0.4971008,0.402832-0.7799683,0.5856934c-0.2828369,0.1828308-0.5770874,0.3171234-0.8770905,0.4028168
			c-0.3028259,0.0857239-0.6342468,0.1285706-0.9999237,0.1285706c-0.5428162,0-1.0399475-0.1342773-1.4884796-0.402832
			c-0.451416-0.2685547-0.8113861-0.6656799-1.0828094-1.1942139c-0.2713928-0.5285339-0.4113922-1.1399384-0.4199524-1.8313141
			h5.9596252C182.430481,207.8486633,183.0475922,207.7372437,183.4875641,207.5086823 M170.0883636,207.8229523
			c-0.3085632-0.4371185-0.7628021-0.8142395-1.3599091-1.1342163c-0.5999603-0.3199921-1.3713684-0.5942535-2.3170166-0.8256683
			c-0.7942505-0.1942749-1.4199066-0.3571167-1.874176-0.4914093c-0.4542542-0.1342621-0.8142242-0.3028259-1.0827789-0.5085297
			c-0.2685699-0.2028503-0.3999786-0.4656982-0.3999786-0.785675c0-0.3485413,0.1799774-0.6428223,0.5456848-0.8770905
			c0.3628387-0.2342682,0.8227997-0.3514099,1.3713379-0.3514099c0.5371246,0,0.9599304,0.0914307,1.2742004,0.2685547
			c0.3114166,0.1799927,0.58284,0.4171295,0.8142548,0.7142487c0.2828369,0.3571167,0.5342407,0.6256714,0.7542419,0.8028107
			c0.2171173,0.1799927,0.4828186,0.2685547,0.7970886,0.2685547c0.4314117,0,0.7628021-0.1114197,0.9970856-0.3342743
			c0.2342682-0.2228394,0.3514099-0.5085297,0.3514099-0.8599396c0-0.3199768-0.1085815-0.6456757-0.3285522-0.9828033
			c-0.2200012-0.334259-0.539978-0.6399536-0.9599609-0.9142303c-0.4199677-0.2742615-0.9427795-0.4942474-1.5713196-0.6571045
			c-0.6313934-0.1656952-1.33992-0.245697-2.1284485-0.245697c-1.0027924,0-1.8598938,0.1599884-2.5712891,0.4856873
			c-0.71138,0.3228455-1.2484741,0.7570953-1.6113129,1.2999268c-0.3657074,0.5428162-0.5485382,1.1199341-0.5485382,1.7284698
			c0,0.6856689,0.1971283,1.2599182,0.5914001,1.7313232c0.3942566,0.4685364,0.9199371,0.8456573,1.579895,1.1313477
			c0.6571045,0.2857056,1.5113373,0.5599823,2.559845,0.8199615c0.9313812,0.2228394,1.5998993,0.4571075,2.0056,0.7028198
			c0.402832,0.245697,0.6056671,0.6371002,0.6056671,1.1713562c0,0.3513947-0.1942749,0.6628113-0.5856781,0.9342194
			c-0.3885498,0.2714081-0.8913727,0.4057007-1.4999084,0.4057007c-0.7513885,0-1.3456421-0.1342926-1.7799072-0.3999786
			c-0.4342346-0.2685547-0.8085175-0.6742554-1.1227722-1.2170715c-0.1542816-0.2828369-0.3199921-0.5028229-0.491394-0.6599579
			c-0.1685638-0.1542816-0.4142761-0.2342682-0.7342529-0.2342682c-0.3656921,0-0.6656647,0.1199799-0.9056702,0.3571167
			c-0.2371063,0.2399902-0.3571167,0.5256805-0.3571167,0.8599396c0,0.5056915,0.1857147,1.0113678,0.5599823,1.5113525
			c0.3713989,0.5028229,0.9485016,0.9227905,1.7284546,1.2570496c0.7799683,0.3342743,1.7198944,0.5028381,2.811264,0.5028381
			c1.1456451,0,2.119873-0.157135,2.9198303-0.465683c0.7999573-0.3085632,1.402771-0.759964,1.8141632-1.3599243
			c0.4085693-0.5999603,0.6142578-1.3199158,0.6142578-2.1598663
			C170.5540466,208.7543182,170.3969116,208.2572021,170.0883636,207.8229523 M150.592392,203.7917633
			c0.4885406-0.5228271,1.1113586-0.785675,1.868454-0.785675c0.7971039,0,1.4399109,0.2571411,1.9255981,0.7742462
			c0.4885559,0.5171051,0.7685394,1.2970581,0.8428192,2.339859h-5.5225372
			C149.8095856,205.0916748,150.1066895,204.3174438,150.592392,203.7917633 M157.5176849,207.5086823
			c0.4399719-0.225708,0.6571045-0.7228088,0.6571045-1.4884796c0-0.8256683-0.2114258-1.6370544-0.6342468-2.4341431
			c-0.4256897-0.7970886-1.0627899-1.4456329-1.9141541-1.9484558c-0.8513947-0.4999695-1.8741913-0.7513885-3.0626984-0.7513885
			c-0.9170837,0-1.7484589,0.1457062-2.4998474,0.4399719c-0.7513885,0.294281-1.3856354,0.7171021-1.8970184,1.2656403
			c-0.5142517,0.5514069-0.9056549,1.2113647-1.1742249,1.9827423c-0.2657013,0.7685242-0.3999634,1.6056213-0.3999634,2.5055695
			c0,1.9113007,0.5428314,3.4255066,1.6284637,4.542572c1.0856476,1.1142273,2.608429,1.6741943,4.5654449,1.6741943
			c0.854248,0,1.6113434-0.1142883,2.271286-0.3371277c0.6571198-0.2228394,1.205658-0.5028229,1.6399231-0.842804
			c0.4342499-0.3371277,0.7599487-0.691391,0.977066-1.0599365c0.2142792-0.3685455,0.3228302-0.6885223,0.3228302-0.9656525
			c0-0.3114166-0.0971222-0.5542603-0.2913971-0.7228241c-0.1914215-0.1714172-0.445694-0.2571259-0.7570953-0.2571259
			c-0.2914124,0-0.514267,0.0657196-0.671402,0.1999969c-0.377121,0.3571167-0.6856537,0.6399536-0.9256439,0.8485107
			c-0.2371368,0.2085724-0.4971313,0.402832-0.7799683,0.5856934c-0.2828369,0.1828308-0.574234,0.3171234-0.8770752,0.4028168
			c-0.3000031,0.0857239-0.6342468,0.1285706-0.9970856,0.1285706c-0.5456848,0-1.0399323-0.1342773-1.4913483-0.402832
			c-0.4514008-0.2685547-0.8113708-0.6656799-1.0827789-1.1942139c-0.2714233-0.5285339-0.4114075-1.1399384-0.4171295-1.8313141
			h5.9596558C156.4606171,207.8486633,157.077713,207.7372437,157.5176849,207.5086823 M136.353241,196.8750458
			c-0.308548-0.3314209-0.7142334-0.4971161-1.2113647-0.4971161c-0.4913788,0-0.888504,0.1656952-1.1884918,0.4999695
			c-0.3028259,0.3371124-0.4514008,0.8370819-0.4514008,1.5084686v12.5992432c0,0.7142487,0.157135,1.2313538,0.4742584,1.5513306
			c0.31427,0.3199921,0.8342438,0.4799805,1.5570526,0.4799805h7.999527c0.5456848,0,0.957077-0.1257172,1.2399139-0.3742676
			s0.4256897-0.5742493,0.4256897-0.9770813c0-0.3942566-0.1457062-0.7199554-0.4313965-0.9828033
			c-0.2856903-0.2599792-0.697113-0.3885498-1.2342072-0.3885498h-6.7167358v-11.9078522
			C136.8160858,197.7092743,136.6618042,197.2035828,136.353241,196.8750458 M117.4915085,203.7917633
			c0.4885559-0.5228271,1.1113586-0.785675,1.8713303-0.785675c0.7942429,0,1.4370575,0.2571411,1.9227371,0.7742462
			c0.488533,0.5171051,0.7685165,1.2970581,0.8427963,2.339859h-5.522522
			C116.7087173,205.0916748,117.0058289,204.3174438,117.4915085,203.7917633 M124.4168167,207.5086823
			c0.4399719-0.225708,0.6599655-0.7228088,0.6599655-1.4884796c0-0.8256683-0.2142792-1.6370544-0.6371002-2.4341431
			c-0.4256973-0.7970886-1.0627975-1.4456329-1.9141846-1.9484558c-0.8513718-0.4999695-1.8741684-0.7513885-3.0626755-0.7513885
			c-0.9170837,0-1.7484589,0.1457062-2.4998474,0.4399719c-0.7513809,0.294281-1.3856354,0.7171021-1.8970337,1.2656403
			c-0.5142517,0.5514069-0.9056625,1.2113647-1.174202,1.9827423c-0.2657013,0.7685242-0.399971,1.6056213-0.399971,2.5055695
			c0,1.9113007,0.5428085,3.4255066,1.6284714,4.542572c1.08564,1.1142273,2.6083984,1.6741943,4.5654373,1.6741943
			c0.8542252,0,1.6113205-0.1142883,2.271286-0.3371277c0.6571121-0.2228394,1.2056351-0.5028229,1.6398926-0.842804
			c0.4342651-0.3371277,0.7599564-0.691391,0.9770966-1.0599365c0.2142639-0.3685455,0.3228378-0.6885223,0.3228378-0.9656525
			c0-0.3114166-0.0971298-0.5542603-0.2914047-0.7228241c-0.1914215-0.1714172-0.4457092-0.2571259-0.7570953-0.2571259
			c-0.2914276,0-0.5142593,0.0657196-0.6713943,0.1999969c-0.3771286,0.3571167-0.6856842,0.6399536-0.9256744,0.8485107
			c-0.2371292,0.2085724-0.4971008,0.402832-0.7799377,0.5856934c-0.2828369,0.1828308-0.5742645,0.3171234-0.8770828,0.4028168
			c-0.2999954,0.0857239-0.6342545,0.1285706-0.9971085,0.1285706c-0.5456619,0-1.0399323-0.1342773-1.4913254-0.402832
			s-0.8113937-0.6656799-1.0827866-1.1942139c-0.2714157-0.5285339-0.4114151-1.1399384-0.4171295-1.8313141h5.9596405
			C123.359726,207.8486633,123.9768448,207.7372437,124.4168167,207.5086823 M107.7320938,206.5715942
			c0.0600052-0.6371002,0.1685791-1.1856384,0.3228531-1.6456146c0.157135-0.4628296,0.3771133-0.8085175,0.6599503-1.0428009
			c0.2828369-0.2342682,0.6485443-0.3513947,1.0942307-0.3513947c0.3256912,0,0.7028198,0.0685577,1.1313477,0.2056885
			c0.4285507,0.1371307,0.697113,0.2057037,0.8085327,0.2057037c0.2999725,0,0.5771027-0.1199951,0.8313828-0.3628235
			c0.2571182-0.2399902,0.3856735-0.5485535,0.3856735-0.9199524c0-0.5285339-0.2999649-0.9513702-0.9027863-1.271347
			c-0.6028366-0.3199921-1.2256393-0.4799805-1.8656006-0.4799805c-0.6371002,0-1.1513596,0.1599884-1.5342026,0.4799805
			c-0.382843,0.3199768-0.7570953,0.7913666-1.1199265,1.4170532c-0.0228653-0.6256866-0.1457138-1.0970764-0.3685608-1.4170532
			c-0.2228317-0.3199921-0.5885239-0.4799805-1.0942078-0.4799805c-0.9885178,0-1.4827881,0.6828156-1.4827881,2.0513v8.4823608
			c0,0.6113892,0.140007,1.0713654,0.4228439,1.3827667c0.2828369,0.31427,0.6428146,0.471405,1.0827866,0.471405
			c0.4457016,0,0.8142471-0.157135,1.1056519-0.465683c0.2885666-0.3085632,0.4342575-0.7713928,0.4342575-1.3884888v-2.5455627
			C107.6435318,207.9829407,107.6721039,207.2086945,107.7320938,206.5715942 M93.3872528,196.8464661
			c-0.2714157-0.31427-0.6485291-0.4685364-1.1342316-0.4685364c-0.4742584,0-0.8456573,0.1542664-1.1085052,0.4628296
			c-0.2656784,0.308548-0.3971176,0.7713776-0.3971176,1.3884888v13.2134857c0,1.2342072,0.5028381,1.8541718,1.5056229,1.8541718
			c0.4857025,0,0.8628159-0.1599884,1.1342316-0.4742584c0.2714157-0.3171234,0.4056854-0.7770996,0.4056854-1.3799133v-4.0283356
			c0-1.1599274,0.0828476-1.9684448,0.2456894-2.4227142c0.2171478-0.534256,0.5428314-0.957077,0.9770966-1.2656403
			c0.4342575-0.308548,0.9256516-0.4628143,1.468483-0.4628143c0.8113708,0,1.3599091,0.2628326,1.6513367,0.7856598
			c0.2885513,0.5256805,0.4342651,1.2742004,0.4342651,2.2484283v5.1454163c0,1.2342072,0.5028076,1.8541718,1.5084763,1.8541718
			c0.4599609,0,0.8313828-0.157135,1.1085052-0.471405c0.2799835-0.3114014,0.41996-0.7713776,0.41996-1.3827667v-5.836792
			c0-0.5885468-0.0371399-1.1056519-0.1114197-1.5570526c-0.0742874-0.4485474-0.2199783-0.8571014-0.4371185-1.2227783
			c-0.3428192-0.6228333-0.8113708-1.0999451-1.4113312-1.4284973c-0.5999603-0.3256836-1.2856522-0.4885406-2.0598755-0.4885406
			c-0.5114059,0-0.9913712,0.062851-1.4370575,0.1942749c-0.448555,0.131424-0.8542404,0.3256989-1.2227859,0.5856781
			c-0.3685608,0.2599792-0.7456741,0.6142578-1.1342239,1.0599365v-4.5197144
			C93.7929382,197.620697,93.6586685,197.1578827,93.3872528,196.8464661 M84.4706345,212.7883606
			c0.3085632,0.3371277,0.6999664,0.5085449,1.1770859,0.5085449c0.4971008,0,0.8999481-0.1685638,1.2113419-0.5028381
			c0.3085556-0.334259,0.4628372-0.8399353,0.4628372-1.5170441v-12.8906555c0-0.6770935-0.1542816-1.182785-0.4628372-1.511322
			c-0.3113937-0.3314209-0.714241-0.4971161-1.2113419-0.4971161c-0.4856873,0-0.8799438,0.1656952-1.1827927,0.4999695
			c-0.3057022,0.3371124-0.4571075,0.8370819-0.4571075,1.5084686v12.8906555
			C84.0078201,211.9455566,84.1620789,212.4483795,84.4706345,212.7883606 M74.9054947,207.8229523
			c-0.3085556-0.4371185-0.7628021-0.8142395-1.3627625-1.1342163c-0.5971069-0.3199921-1.3684998-0.5942535-2.3141632-0.8256683
			c-0.7970963-0.1942749-1.4227524-0.3571167-1.8741684-0.4914093c-0.4542465-0.1342621-0.8170776-0.3028259-1.0827866-0.5085297
			c-0.2685623-0.2028503-0.402832-0.4656982-0.402832-0.785675c0-0.3485413,0.1828384-0.6428223,0.5485458-0.8770905
			c0.3628311-0.2342682,0.8199387-0.3514099,1.3713303-0.3514099c0.5342712,0,0.959938,0.0914307,1.2713547,0.2685547
			c0.31427,0.1799927,0.5856857,0.4171295,0.8142471,0.7142487c0.2828369,0.3571167,0.5342407,0.6256714,0.7542419,0.8028107
			c0.2199707,0.1799927,0.4856796,0.2685547,0.7970886,0.2685547c0.4314117,0,0.7656631-0.1114197,0.999939-0.3342743
			c0.2342758-0.2228394,0.3514099-0.5085297,0.3514099-0.8599396c0-0.3199768-0.1085739-0.6456757-0.3285446-0.9828033
			c-0.2200012-0.334259-0.539978-0.6399536-0.9599609-0.9142303c-0.41996-0.2742615-0.9456406-0.4942474-1.574173-0.6571045
			c-0.62854-0.1656952-1.3370743-0.245697-2.1256027-0.245697c-1.0056458,0-1.8627396,0.1599884-2.5712738,0.4856873
			c-0.7113876,0.3228455-1.2484894,0.7570953-1.6141739,1.2999268c-0.3628311,0.5428162-0.5456848,1.1199341-0.5456848,1.7284698
			c0,0.6856689,0.1971283,1.2599182,0.5913925,1.7313232c0.3942642,0.4685364,0.9199371,0.8456573,1.5770493,1.1313477
			c0.6599503,0.2857056,1.5141983,0.5599823,2.5626907,0.8199615c0.9285355,0.2228394,1.5970459,0.4571075,2.0027542,0.7028198
			c0.4056854,0.245697,0.6085281,0.6371002,0.6085281,1.1713562c0,0.3513947-0.1942825,0.6628113-0.5856857,0.9342194
			c-0.3914108,0.2714081-0.8913651,0.4057007-1.4999161,0.4057007c-0.7513885,0-1.3456345-0.1342926-1.7798767-0.3999786
			c-0.4371109-0.2685547-0.8113861-0.6742554-1.1228027-1.2170715c-0.157135-0.2828369-0.3199768-0.5028229-0.491394-0.6599579
			c-0.1714096-0.1542816-0.4171219-0.2342682-0.7371063-0.2342682c-0.3628311,0-0.665657,0.1199799-0.9027863,0.3571167
			c-0.2400055,0.2399902-0.3571167,0.5256805-0.3571167,0.8599396c0,0.5056915,0.1856842,1.0113678,0.557106,1.5113525
			c0.3713989,0.5028229,0.948494,0.9227905,1.731308,1.2570496c0.7799606,0.3342743,1.7170334,0.5028381,2.811264,0.5028381
			c1.1456528,0,2.1198654-0.157135,2.9169769-0.465683c0.7999496-0.3085632,1.4056244-0.759964,1.8141632-1.3599243
			c0.4085617-0.5999603,0.6142578-1.3199158,0.6142578-2.1598663
			C75.3683319,208.7543182,75.2140579,208.2572021,74.9054947,207.8229523 M59.4778595,207.6029663
			c0,1.0570679-0.1399918,1.8170319-0.4142609,2.2770081c-0.2371292,0.4171143-0.6113968,0.7570953-1.1227837,1.0227814
			c-0.5085449,0.2628479-1.0656548,0.3942719-1.6684837,0.3942719c-0.5628166,0-1.022789-0.1600037-1.3713417-0.4856873
			c-0.3485451-0.3228455-0.5256805-0.7142487-0.5256805-1.1770782c0-0.4456787,0.1514244-0.7942352,0.4485397-1.0427856
			c0.2971268-0.2485657,0.6085396-0.4171143,0.9370956-0.5028381c0.3256874-0.0857086,0.9170837-0.219986,1.7684631-0.3999634
			c0.8513794-0.1828613,1.4999123-0.357132,1.948452-0.5199738V207.6029663z M60.6492157,212.8540649
			c0.3057022,0.294281,0.6142502,0.4428406,0.925663,0.4428406c0.3714104,0,0.7056656-0.1285706,0.9999352-0.3856964
			c0.2914162-0.2571259,0.4399719-0.5428314,0.4399719-0.8542328c0-0.1799927-0.0942688-0.5799561-0.2856903-1.1999207
			c-0.1885681-0.6199646-0.2828369-1.2170715-0.2828369-1.7913361c0.0057106-0.6085205,0.0114212-1.1627808,0.0171432-1.6627502
			c0.0028534-0.4971161,0.0028534-1.1056519,0.0028534-1.8198853c0-1.1285095-0.157135-2.0370178-0.4742584-2.722702
			c-0.3142662-0.6828156-0.85709-1.182785-1.6227608-1.4999084c-0.7656746-0.3171234-1.8198929-0.4742584-3.1569519-0.4742584
			c-1.1999359,0-2.1998711,0.1628571-3.0026741,0.4914093c-0.8028145,0.3256836-1.3942108,0.7427979-1.7741852,1.2484894
			c-0.3799744,0.5056763-0.5685425,1.0285034-0.5685425,1.5627594c0,0.3428345,0.12286,0.6228333,0.3714104,0.8428192
			c0.2514191,0.219986,0.5456886,0.328537,0.8885193,0.328537c0.3799782,0,0.6256714-0.0685577,0.7428093-0.2056885
			c0.1142807-0.137146,0.3114128-0.4228363,0.5913963-0.854248c0.2771263-0.4313965,0.6142464-0.7542267,1.0028-0.9713593
			c0.3913994-0.2142792,0.9742279-0.3228455,1.7484665-0.3228455c0.8999405,0,1.4913368,0.1885681,1.7798958,0.5628204
			c0.2856941,0.377121,0.4485359,0.9656677,0.4856796,1.7684784c-0.6399574,0.1885529-1.234211,0.3456879-1.7798958,0.4742432
			c-0.5485306,0.131424-1.2056351,0.2742767-1.9713058,0.4314117c-0.7656746,0.1542816-1.2456436,0.2571259-1.4399185,0.2999725
			c-0.9227982,0.2028503-1.6484718,0.5971069-2.1770058,1.182785c-0.5256882,0.5885468-0.7913818,1.2999268-0.7913818,2.1313019
			c0,0.6199646,0.1599884,1.1913605,0.479969,1.7199097c0.3199806,0.5285339,0.7770958,0.9456482,1.3684883,1.2542114
			c0.5913963,0.308548,1.2770653,0.465683,2.0570259,0.465683c0.8570862,0,1.6284714-0.1457062,2.3169937-0.4314117
			c0.6885338-0.2856903,1.3999214-0.7142334,2.1370163-1.2884827
			C60.0206795,212.1341095,60.3435249,212.5597992,60.6492157,212.8540649 M35.0250473,201.337616
			c-0.1771317-0.2856903-0.5199776-0.4285431-1.0256577-0.4285431c-0.3799744,0-0.699955,0.1285706-0.9599495,0.3885498
			c-0.2599831,0.2628479-0.3913956,0.554245-0.3913956,0.8827972c0,0.2599945,0.1228485,0.7313843,0.3685417,1.4170685
			l2.4655762,7.2995605c0.0685616,0.1914062,0.1599884,0.4542542,0.2799797,0.7856598
			c0.1171379,0.3314209,0.2571297,0.6171112,0.411396,0.8599548c0.157135,0.2428436,0.3514137,0.4285431,0.5856857,0.5571136
			c0.2342758,0.1314087,0.5199661,0.1971283,0.8542328,0.1971283c0.6542473,0,1.1142197-0.2114105,1.3742027-0.6313934
			c0.2599831-0.4199677,0.4999657-1.0428009,0.7256737-1.868454l1.6827583-5.9396515l1.7427444,5.9396515
			c0.1485672,0.534256,0.2857018,0.9685059,0.4114075,1.3056335c0.1285667,0.334259,0.322834,0.6171112,0.5856819,0.8456573
			c0.2656937,0.2314148,0.6285286,0.3485565,1.0885086,0.3485565c0.4485397,0,0.7999496-0.1085663,1.0542221-0.3256989
			c0.2571259-0.2142639,0.4456825-0.4599762,0.5656738-0.7370911c0.1171379-0.2742767,0.2857018-0.7199707,0.4999695-1.3370667
			l2.4912834-7.2995605c0.2285614-0.6313934,0.3456879-1.1056519,0.3456879-1.4170685
			c0-0.3428345-0.1342697-0.6399536-0.402832-0.8942261c-0.2685471-0.2514038-0.5828171-0.377121-0.948513-0.377121
			c-0.3656883,0-0.6428146,0.0828552-0.8370934,0.2514191c-0.1942749,0.1656952-0.3314095,0.3599701-0.4114075,0.5799561
			c-0.0828476,0.2171326-0.1914062,0.5742645-0.3256874,1.0656586l-2.0084496,6.8052979l-1.8084602-6.3253326
			c-0.1857109-0.6342468-0.3314133-1.0770721-0.4342613-1.334198c-0.1057167-0.2571411-0.2857056-0.4942627-0.5399666-0.7142487
			c-0.2571259-0.219986-0.6142464-0.3285522-1.0685081-0.3285522c-0.445694,0-0.7971039,0.1085663-1.0542297,0.3285522
			c-0.2571182,0.219986-0.4313965,0.4485474-0.5228233,0.691391c-0.0942841,0.2428436-0.2371292,0.6942444-0.4314041,1.3570557
			l-1.8056068,6.3253326l-1.9884491-6.8052979C35.393589,202.1118622,35.2021675,201.6233215,35.0250473,201.337616"/>
    <path d="M195.4945526,190.8522491c-0.3028564,0.1856995-0.4571228,0.4314117-0.4571228,0.7371063
			c0,0.1999817,0.0742798,0.377121,0.2171326,0.5285339c0.1456909,0.1542816,0.334259,0.2314148,0.5656738,0.2314148
			c0.3628387,0,0.7713776-0.1885529,1.2199402-0.5656738c0.4513855-0.3742676,0.8313751-0.8856659,1.1456451-1.5284882
			c0.3113861-0.6428223,0.4685211-1.3342133,0.4685211-2.0684509c0-0.5513763-0.08284-1.0142212-0.245697-1.3913422
			c-0.1628418-0.3742676-0.3914032-0.6599579-0.6799469-0.8542328c-0.2914124-0.1914062-0.6142426-0.2885437-0.9713593-0.2885437
			c-0.4771118,0-0.8885345,0.1599884-1.2399445,0.4799652c-0.3485413,0.3199768-0.5228271,0.7142487-0.5228271,1.182785
			c0,0.5428314,0.1771545,0.9656525,0.5342712,1.2656403c0.3571167,0.3028412,0.7799377,0.4514008,1.271347,0.4514008
			C196.8001862,189.7637482,196.365921,190.3694153,195.4945526,190.8522491 M183.5038452,177.3816376
			c-0.1314392-0.2514191-0.3028412-0.4428406-0.5199585-0.5685425c-0.2142944-0.1257019-0.4571381-0.1885529-0.7228394-0.1885529
			c-0.4399719,0-0.785675,0.1428375-1.0399323,0.4285431c-0.2514038,0.2856903-0.3799591,0.7199554-0.3799591,1.2999268v8.8051758
			c0,0.5971069,0.1428375,1.0542297,0.4256744,1.3742065s0.642807,0.4799652,1.0827942,0.4799652
			c0.4542542,0,0.8227997-0.1542816,1.10849-0.465683c0.2885742-0.308548,0.4314117-0.7713776,0.4314117-1.3884888v-3.8169098
			c0-1.2427826,0.0742798-2.0913086,0.2228546-2.5427094c0.2085419-0.5656738,0.5342407-1.0113678,0.9827881-1.334198
			c0.445694-0.3256989,0.9399414-0.4856873,1.4827728-0.4856873c0.8342285,0,1.3913422,0.2657013,1.6684723,0.7971039
			c0.2799683,0.5313873,0.4199829,1.2999115,0.4199829,2.3055725v5.076828c0,0.5971069,0.1399689,1.0542297,0.4228058,1.3742065
			s0.651413,0.4799652,1.1056519,0.4799652c0.445694,0,0.808548-0.157135,1.0885162-0.4685364
			c0.2771301-0.31427,0.4171143-0.7742462,0.4171143-1.3856354v-5.6682281c0-0.6713867-0.0285797-1.2199402-0.088562-1.6513214
			c-0.0600128-0.4314117-0.1885681-0.8342438-0.3914032-1.205658c-0.3114166-0.6399536-0.785675-1.134201-1.4170685-1.4856262
			c-0.6313934-0.3485413-1.3513489-0.5228119-2.1541443-0.5228119c-0.8256683,0-1.5570526,0.1656952-2.1912994,0.4942474
			c-0.6371002,0.3314056-1.2227936,0.8513794-1.7598877,1.5570526v-0.3685608
			C183.6981201,177.944458,183.6352539,177.63591,183.5038452,177.3816376 M170.7817383,179.5072174
			c0.4856873-0.5228119,1.1113739-0.785675,1.8684692-0.785675c0.7970886,0,1.4370422,0.2599945,1.9255981,0.7742462
			c0.4885406,0.5199738,0.7685242,1.2970734,0.842804,2.339859h-5.5253754
			C169.9989319,180.8071442,170.2932129,180.0328979,170.7817383,179.5072174 M177.7070465,183.2241364
			c0.4371185-0.2256927,0.6571045-0.7228088,0.6571045-1.4884796c0-0.8256531-0.2114105-1.6370392-0.6342621-2.4341278
			c-0.4256897-0.7942505-1.0627899-1.4456329-1.9141541-1.9484711c-0.854248-0.4999695-1.874176-0.7513885-3.0655365-0.7513885
			c-0.9142151,0-1.7484589,0.1457214-2.4998474,0.4399872c-0.7513733,0.2942657-1.3827667,0.7171021-1.8970337,1.265625
			c-0.5113983,0.5514069-0.9028015,1.2113647-1.1713562,1.9827423c-0.2685394,0.7685242-0.3999786,1.6056213-0.3999786,2.5055695
			c0,1.9113159,0.5428314,3.4255066,1.6284637,4.5425873c1.0856628,1.114212,2.608429,1.6741791,4.5654449,1.6741791
			c0.854248,0,1.6113434-0.1114197,2.2684326-0.3371124c0.6599731-0.2228546,1.205658-0.5028229,1.6427765-0.842804
			c0.4342499-0.3371277,0.7599487-0.691391,0.9742126-1.0599518c0.2171326-0.3685455,0.3257141-0.6885223,0.3257141-0.9656372
			c0-0.3114166-0.0971527-0.5514069-0.2914276-0.7228241s-0.4456787-0.2571259-0.7570953-0.2571259
			c-0.2914124,0-0.5142517,0.0657043-0.6713867,0.1999817c-0.3799744,0.3571167-0.6885223,0.6399536-0.9256592,0.848526
			c-0.2371216,0.2085571-0.4999847,0.402832-0.779953,0.5856781c-0.2828369,0.1828461-0.5771027,0.3171234-0.8770905,0.402832
			c-0.3028259,0.0857086-0.6342468,0.1285553-0.999939,0.1285553c-0.5428314,0-1.0399323-0.1342621-1.4884949-0.402832
			c-0.4513855-0.2685547-0.8113708-0.6656647-1.0827789-1.1941986c-0.2714233-0.5285492-0.4114075-1.137085-0.4199677-1.8313293
			h5.9596405C176.6499634,183.5641174,177.2670593,183.4526978,177.7070465,183.2241364 M164.3078461,183.5384064
			c-0.308548-0.4371185-0.7628021-0.8142395-1.3599091-1.1342163c-0.5999756-0.3199768-1.3713531-0.5942535-2.3170166-0.8256683
			c-0.7942352-0.1942596-1.4199219-0.3571167-1.8741608-0.491394c-0.4542847-0.1342773-0.8142548-0.3028412-1.0827942-0.5085449
			c-0.2685547-0.2028351-0.402832-0.465683-0.402832-0.785675c0-0.3485413,0.1828308-0.642807,0.5485229-0.8770752
			c0.3628387-0.2342834,0.8228149-0.3514252,1.3713531-0.3514252c0.5371094,0,0.9599457,0.0914307,1.2742157,0.2685699
			c0.3114014,0.1799927,0.5828247,0.4171143,0.8142395,0.7142334c0.2828369,0.357132,0.5342407,0.6256866,0.7513733,0.8028107
			c0.219986,0.1799927,0.4856873,0.2685547,0.7999573,0.2685547c0.4313965,0,0.7628174-0.1114197,0.9970856-0.334259
			s0.3514099-0.5085297,0.3514099-0.8599396c0-0.3199921-0.1085663-0.6456909-0.3285675-0.9828033
			c-0.2199707-0.3342743-0.5399475-0.6399689-0.9599304-0.9142303c-0.4199677-0.2742767-0.9456635-0.4942627-1.5742035-0.6571045
			c-0.6285095-0.1657104-1.3370514-0.245697-2.1255798-0.245697c-1.0027924,0-1.8598938,0.1599884-2.5712738,0.485672
			c-0.7113953,0.3228455-1.2484894,0.7570953-1.6141968,1.2999268c-0.3628387,0.5428314-0.5456696,1.1199341-0.5456696,1.7284698
			c0,0.6856689,0.1971436,1.2627716,0.5914001,1.7313232c0.3942413,0.4685516,0.9199371,0.8456726,1.5798798,1.1313629
			c0.6571198,0.2857056,1.5113373,0.559967,2.5598602,0.8199463c0.931366,0.2228546,1.5970459,0.4571075,2.0027313,0.7028198
			c0.4057007,0.245697,0.608551,0.6371002,0.608551,1.1713562c0,0.3514099-0.1942749,0.6628113-0.5856934,0.9342346
			c-0.3885498,0.2714081-0.8913727,0.4056854-1.4999084,0.4056854c-0.7513885,0-1.3456421-0.1342773-1.779892-0.3999786
			c-0.4371185-0.2685547-0.8085175-0.6742401-1.1227875-1.2170715c-0.1542816-0.2828369-0.3199768-0.5028229-0.491394-0.6599579
			c-0.1714325-0.1542664-0.4142761-0.2342682-0.7342529-0.2342682c-0.3656769,0-0.6685333,0.1199951-0.9056549,0.3571167
			c-0.2371368,0.2399902-0.357132,0.5256805-0.357132,0.8599548c0,0.5056915,0.1857147,1.0113678,0.5571136,1.5113373
			c0.3742828,0.5028229,0.9513702,0.9228058,1.7313385,1.2570648c0.779953,0.3342743,1.7198792,0.5028229,2.811264,0.5028229
			c1.1456451,0,2.1198578-0.1542816,2.9197998-0.465683c0.7999725-0.308548,1.4027863-0.759964,1.8141937-1.3599243
			c0.4085388-0.5999603,0.6114044-1.3199158,0.6114044-2.1598663
			C164.7706909,184.4697723,164.6164093,183.9726715,164.3078461,183.5384064 M151.9200287,183.5384064
			c-0.3085632-0.4371185-0.7628326-0.8142395-1.3599396-1.1342163c-0.5999603-0.3199768-1.3713379-0.5942535-2.3169861-0.8256683
			c-0.7942505-0.1942596-1.4199219-0.3571167-1.874176-0.491394c-0.4542694-0.1342773-0.8142395-0.3028412-1.0828094-0.5085449
			c-0.2685394-0.2028351-0.402832-0.465683-0.402832-0.785675c0-0.3485413,0.1828613-0.642807,0.5485535-0.8770752
			c0.3628235-0.2342834,0.8228149-0.3514252,1.3713531-0.3514252c0.5370941,0,0.9599304,0.0914307,1.2742004,0.2685699
			c0.3114166,0.1799927,0.5828094,0.4171143,0.8142242,0.7142334c0.2828369,0.357132,0.5342712,0.6256866,0.7513885,0.8028107
			c0.2200012,0.1799927,0.4857025,0.2685547,0.7999573,0.2685547c0.4313965,0,0.7628174-0.1114197,0.9971008-0.334259
			c0.2342529-0.2228394,0.3513794-0.5085297,0.3513794-0.8599396c0-0.3199921-0.108551-0.6456909-0.328537-0.9828033
			c-0.219986-0.3342743-0.5399628-0.6399689-0.9599457-0.9142303c-0.4199829-0.2742767-0.9428101-0.4942627-1.5741882-0.6571045
			c-0.62854-0.1657104-1.3370514-0.245697-2.1255798-0.245697c-1.0028076,0-1.8598938,0.1599884-2.5712738,0.485672
			c-0.7113953,0.3228455-1.2485199,0.7570953-1.6113434,1.2999268c-0.3656921,0.5428314-0.5485535,1.1199341-0.5485535,1.7284698
			c0,0.6856689,0.1971436,1.2627716,0.5914001,1.7313232c0.3942719,0.4685516,0.9199677,0.8456726,1.5799103,1.1313629
			c0.6571198,0.2857056,1.5113373,0.559967,2.5598602,0.8199463c0.931366,0.2228546,1.5998993,0.4571075,2.0055847,0.7028198
			c0.402832,0.245697,0.6056824,0.6371002,0.6056824,1.1713562c0,0.3514099-0.1942749,0.6628113-0.5856781,0.9342346
			c-0.3885498,0.2714081-0.8913879,0.4056854-1.4999084,0.4056854c-0.7513885,0-1.3456421-0.1342773-1.7799072-0.3999786
			c-0.4342499-0.2685547-0.8085022-0.6742401-1.1227722-1.2170715c-0.1542816-0.2828369-0.3199921-0.5028229-0.4914246-0.6599579
			c-0.1685486-0.1542664-0.4142456-0.2342682-0.7342224-0.2342682c-0.3656921,0-0.6656799,0.1199951-0.9056702,0.3571167
			c-0.2371216,0.2399902-0.3571167,0.5256805-0.3571167,0.8599548c0,0.5056915,0.1857147,1.0113678,0.559967,1.5113373
			c0.3714142,0.5028229,0.9485168,0.9228058,1.7284698,1.2570648c0.7799377,0.3342743,1.7198944,0.5028229,2.811264,0.5028229
			c1.1456299,0,2.119873-0.1542816,2.9198151-0.465683c0.799942-0.308548,1.4027863-0.759964,1.8141785-1.3599243
			c0.4085388-0.5999603,0.6113892-1.3199158,0.6113892-2.1598663
			C152.382843,184.4697723,152.2285614,183.9726715,151.9200287,183.5384064 M138.9808044,174.8103638
			c0.2971191-0.2657013,0.4456787-0.6313934,0.4456787-1.0999298c0-0.4828491-0.151413-0.8513794-0.4571228-1.1056519
			c-0.3056793-0.2514191-0.6542358-0.377121-1.0484924-0.377121c-0.4085388,0-0.7685394,0.1371307-1.0770874,0.4171143
			s-0.4628296,0.6342468-0.4628296,1.0656586c0,0.4771118,0.1514282,0.8456573,0.4514008,1.1056366
			c0.3028412,0.2599945,0.6656647,0.3914032,1.0885162,0.3914032
			C138.3294067,175.2074738,138.68367,175.0731964,138.9808044,174.8103638 M138.9922333,177.0816498
			c-0.2914124-0.3056946-0.6571198-0.4571075-1.1056519-0.4571075c-0.445694,0-0.8085175,0.151413-1.088501,0.4571075
			c-0.2771301,0.3056946-0.4171295,0.7570953-0.4171295,1.3599243v8.7166138c0,0.5971069,0.1399994,1.0542297,0.4171295,1.3742065
			c0.2799835,0.3199768,0.642807,0.4799652,1.088501,0.4799652c0.4485321,0,0.8142395-0.157135,1.1056519-0.4685364
			c0.2913971-0.31427,0.4342499-0.7742462,0.4342499-1.3856354v-8.8051758
			C139.4264832,177.8101807,139.2836304,177.3873444,138.9922333,177.0816498 M119.1276932,177.0530853
			c-0.1799774-0.2857056-0.5199661-0.4285431-1.028511-0.4285431c-0.3771057,0-0.6970825,0.1285553-0.957077,0.3885345
			c-0.2628555,0.2628479-0.3914108,0.5542603-0.3914108,0.8828125c0,0.2599792,0.1228485,0.7313843,0.3685455,1.4170532
			l2.4655838,7.2995605c0.0656967,0.1914215,0.1599884,0.4542694,0.2799835,0.785675
			c0.1171341,0.3314056,0.2542572,0.6171112,0.4113922,0.8599396c0.157135,0.2428436,0.3514099,0.4285583,0.5856857,0.5571136
			c0.2342758,0.131424,0.5199661,0.1971283,0.8542252,0.1971283c0.6542587,0,1.1113586-0.2114105,1.3742065-0.6313934
			c0.2599945-0.4199677,0.4999847-1.0427856,0.7228088-1.868454l1.6856308-5.9396362l1.7427521,5.9396362
			c0.1485443,0.534256,0.2856903,0.9685211,0.4113922,1.3056335c0.1257019,0.3342743,0.3228378,0.6171112,0.5856857,0.8456726
			c0.265686,0.2314148,0.62854,0.3485413,1.088501,0.3485413c0.4456787,0,0.7970886-0.108551,1.0542297-0.3256836
			c0.2571106-0.2142792,0.4456787-0.4599915,0.5656738-0.7371063c0.1171417-0.2742615,0.2856903-0.7199554,0.4999847-1.3370667
			l2.4884033-7.2995605c0.2314148-0.6313934,0.3485565-1.1056519,0.3485565-1.4170532
			c0-0.3428497-0.1342773-0.6399536-0.402832-0.8942261c-0.2685699-0.2514191-0.5856934-0.377121-0.9485168-0.377121
			c-0.3656921,0-0.6428223,0.08284-0.8370972,0.2514038c-0.1942749,0.1657104-0.3313904,0.3599701-0.4142761,0.5799713
			c-0.0799866,0.2171326-0.1885376,0.5742493-0.3228302,1.0656433l-2.0084381,6.8081665l-1.8084717-6.3282013
			c-0.1857071-0.6342316-0.331398-1.0770721-0.4342575-1.334198c-0.10569-0.2571259-0.2856903-0.4942627-0.5428085-0.7142487
			c-0.2542877-0.219986-0.6114044-0.328537-1.0656509-0.328537c-0.4457092,0-0.7970963,0.108551-1.0542374,0.328537
			c-0.2571182,0.219986-0.4314041,0.4485474-0.5228195,0.691391c-0.0942688,0.2428436-0.2371292,0.6942444-0.4314041,1.3570557
			l-1.8084717,6.3282013l-1.9855957-6.8081665C119.4962387,177.8301697,119.3048401,177.3387756,119.1276932,177.0530853
			 M105.1885376,182.2870483c0.0599899-0.6371002,0.1685562-1.1856384,0.3228378-1.6456146
			c0.157135-0.4628296,0.3771057-0.8085175,0.6599655-1.0427856c0.2828369-0.2342682,0.6456757-0.3514099,1.0913544-0.3514099
			c0.3285446,0,0.7056732,0.0685577,1.1342239,0.2057037c0.4285278,0.1371307,0.6970901,0.2057037,0.8085175,0.2057037
			c0.2971344,0,0.5742645-0.1199951,0.8313828-0.3628387c0.2571106-0.2399902,0.3856964-0.5485382,0.3856964-0.9199524
			c0-0.5285339-0.3028488-0.9513702-0.9028091-1.271347c-0.6028214-0.3199768-1.225647-0.4799652-1.8656006-0.4799652
			c-0.6399612,0-1.1513596,0.1599884-1.5342026,0.4799652c-0.3828201,0.3199768-0.7570953,0.7913818-1.1199265,1.4170532
			c-0.0228653-0.6256714-0.1457138-1.0970764-0.3685455-1.4170532c-0.225708-0.3199768-0.5885391-0.4799652-1.0942307-0.4799652
			c-0.9913712,0-1.485611,0.6828156-1.485611,2.0513v8.4823456c0,0.6113892,0.1428299,1.0713654,0.4256668,1.3856354
			c0.2828598,0.3114014,0.6428375,0.4685364,1.0828094,0.4685364c0.4456863,0,0.8142242-0.1542816,1.1027985-0.465683
			c0.2914047-0.308548,0.4371109-0.7713776,0.4371109-1.3884888v-2.5427094
			C105.0999756,183.6983948,105.1285324,182.9241486,105.1885376,182.2870483 M91.9236298,179.5072174
			c0.488533-0.5228119,1.1113586-0.785675,1.871315-0.785675c0.7942352,0,1.4370499,0.2599945,1.9227295,0.7742462
			c0.488533,0.5199738,0.7685394,1.2970734,0.8427963,2.339859h-5.5225143
			C91.1408157,180.8071442,91.4379272,180.0328979,91.9236298,179.5072174 M98.8489151,183.2241364
			c0.4399719-0.2256927,0.6599655-0.7228088,0.6599655-1.4884796c0-0.8256531-0.2142792-1.6370392-0.6371002-2.4341278
			c-0.4228363-0.7942505-1.0627975-1.4456329-1.9141846-1.9484711c-0.8513718-0.4999695-1.8741684-0.7513885-3.0626755-0.7513885
			c-0.9170837,0-1.7484589,0.1457214-2.4998474,0.4399872c-0.7513809,0.2942657-1.3856354,0.7171021-1.8970337,1.265625
			c-0.5142517,0.5514069-0.9056396,1.2113647-1.1713486,1.9827423c-0.2685547,0.7685242-0.4028244,1.6056213-0.4028244,2.5055695
			c0,1.9113159,0.5428085,3.4255066,1.6284714,4.5425873c1.08564,1.114212,2.6083984,1.6741791,4.5654373,1.6741791
			c0.8542252,0,1.6113205-0.1114197,2.271286-0.3371124c0.6571121-0.2228546,1.2056351-0.5028229,1.6399002-0.842804
			c0.4342575-0.3371277,0.7599716-0.691391,0.9770889-1.0599518c0.2142639-0.3685455,0.3228378-0.6885223,0.3228378-0.9656372
			c0-0.3114166-0.0971298-0.5514069-0.2885513-0.7228241c-0.1942749-0.1714172-0.4485397-0.2571259-0.7599487-0.2571259
			c-0.2914276,0-0.5142593,0.0657043-0.6685333,0.1999817c-0.3799896,0.3571167-0.68853,0.6399536-0.9285355,0.848526
			c-0.2371292,0.2085571-0.4971008,0.402832-0.7799377,0.5856781s-0.5742645,0.3171234-0.8770828,0.402832
			c-0.2999954,0.0857086-0.6342545,0.1285553-0.9970856,0.1285553c-0.5428314,0-1.0399551-0.1342621-1.4913483-0.402832
			c-0.4485321-0.2685547-0.8113708-0.6656647-1.0827866-1.1941986c-0.2714157-0.5285492-0.4114151-1.137085-0.4171219-1.8313293
			h5.9596329C97.791832,183.5641174,98.4117966,183.4526978,98.8489151,183.2241364 M85.4525681,183.5384064
			c-0.3085327-0.4371185-0.7628098-0.8142395-1.3627701-1.1342163c-0.5971069-0.3199768-1.3713531-0.5942535-2.3141403-0.8256683
			c-0.7970886-0.1942596-1.4227753-0.3571167-1.8770447-0.491394c-0.4513931-0.1342773-0.8142242-0.3028412-1.0827866-0.5085449
			c-0.2657013-0.2028351-0.399971-0.465683-0.399971-0.785675c0-0.3485413,0.1828537-0.642807,0.5456848-0.8770752
			c0.3656921-0.2342834,0.8228149-0.3514252,1.3741913-0.3514252c0.5342636,0,0.9599609,0.0914307,1.2713547,0.2685699
			c0.311409,0.1799927,0.5828247,0.4171143,0.8142471,0.7142334c0.2828369,0.357132,0.5342407,0.6256866,0.7542343,0.8028107
			c0.2200012,0.1799927,0.4856796,0.2685547,0.7970963,0.2685547c0.4314041,0,0.7656631-0.1114197,0.999939-0.334259
			c0.2342682-0.2228394,0.3514099-0.5085297,0.3514099-0.8599396c0-0.3199921-0.1114273-0.6456909-0.3285522-0.9828033
			c-0.2199936-0.3342743-0.5399704-0.6399689-0.959938-0.9142303c-0.4228363-0.2742767-0.9456558-0.4942627-1.5741959-0.6571045
			c-0.6285324-0.1657104-1.3370667-0.245697-2.1255951-0.245697c-1.0056458,0-1.8627472,0.1599884-2.5741119,0.485672
			c-0.7085342,0.3228455-1.2485046,0.7570953-1.6113434,1.2999268c-0.3656845,0.5428314-0.5485382,1.1199341-0.5485382,1.7284698
			c0,0.6856689,0.1971283,1.2627716,0.5942459,1.7313232c0.3942642,0.4685516,0.9199448,0.8456726,1.5770569,1.1313629
			c0.6599503,0.2857056,1.5141907,0.559967,2.5626907,0.8199463c0.9285278,0.2228546,1.5970612,0.4571075,2.0027466,0.7028198
			c0.4056854,0.245697,0.6085281,0.6371002,0.6085281,1.1713562c0,0.3514099-0.1971283,0.6628113-0.5856857,0.9342346
			c-0.3913803,0.2714081-0.8913651,0.4056854-1.5027466,0.4056854c-0.7513809,0-1.3427811-0.1342773-1.779892-0.3999786
			c-0.4342651-0.2685547-0.8085403-0.6742401-1.1199341-1.2170715c-0.1571274-0.2828369-0.3199997-0.5028229-0.4914093-0.6599579
			c-0.1714096-0.1542664-0.4171066-0.2342682-0.7370834-0.2342682c-0.365715,0-0.6656799,0.1199951-0.9028091,0.3571167
			c-0.2399826,0.2399902-0.3571243,0.5256805-0.3571243,0.8599548c0,0.5056915,0.1856918,1.0113678,0.557106,1.5113373
			c0.3713989,0.5028229,0.9485168,0.9228058,1.7284622,1.2570648c0.782814,0.3342743,1.7199097,0.5028229,2.8141174,0.5028229
			c1.1456451,0,2.1170273-0.1542816,2.9169769-0.465683c0.7999496-0.308548,1.4056168-0.759964,1.8141861-1.3599243
			c0.4085388-0.5999603,0.6142349-1.3199158,0.6142349-2.1598663
			C85.9154053,184.4697723,85.7611237,183.9726715,85.4525681,183.5384064 M73.064743,183.5384064
			c-0.3085556-0.4371185-0.7628021-0.8142395-1.3627625-1.1342163c-0.5971069-0.3199768-1.3713608-0.5942535-2.3141403-0.8256683
			c-0.7971191-0.1942596-1.4227753-0.3571167-1.8770447-0.491394c-0.4514008-0.1342773-0.8142319-0.3028412-1.0799332-0.5085449
			c-0.2685623-0.2028351-0.402832-0.465683-0.402832-0.785675c0-0.3485413,0.1828308-0.642807,0.5456848-0.8770752
			c0.3656921-0.2342834,0.8227921-0.3514252,1.3741913-0.3514252c0.5342636,0,0.959938,0.0914307,1.2713547,0.2685699
			c0.311409,0.1799927,0.5856857,0.4171143,0.8142471,0.7142334c0.2828369,0.357132,0.5342407,0.6256866,0.7542419,0.8028107
			c0.2199707,0.1799927,0.4856796,0.2685547,0.7970886,0.2685547c0.4314041,0,0.7656631-0.1114197,0.999939-0.334259
			c0.2342682-0.2228394,0.3514099-0.5085297,0.3514099-0.8599396c0-0.3199921-0.1114273-0.6456909-0.3285446-0.9828033
			c-0.2200012-0.3342743-0.539978-0.6399689-0.9599609-0.9142303c-0.41996-0.2742767-0.9456406-0.4942627-1.5741806-0.6571045
			c-0.6285324-0.1657104-1.3370667-0.245697-2.1255951-0.245697c-1.0056458,0-1.8627472,0.1599884-2.5741348,0.485672
			c-0.708519,0.3228455-1.2456284,0.7570953-1.6113167,1.2999268s-0.5456848,1.1199341-0.5456848,1.7284698
			c0,0.6856689,0.1971283,1.2627716,0.5913925,1.7313232c0.394268,0.4685516,0.9199562,0.8456726,1.5770531,1.1313629
			c0.6599503,0.2857056,1.5141907,0.559967,2.5626907,0.8199463c0.9285278,0.2228546,1.5970459,0.4571075,2.0027466,0.7028198
			c0.4056854,0.245697,0.6085281,0.6371002,0.6085281,1.1713562c0,0.3514099-0.1971283,0.6628113-0.5856781,0.9342346
			c-0.3914108,0.2714081-0.8913651,0.4056854-1.5027695,0.4056854c-0.7513885,0-1.3427582-0.1342773-1.7798767-0.3999786
			c-0.4342651-0.2685547-0.8085403-0.6742401-1.1199493-1.2170715c-0.157135-0.2828369-0.3199844-0.5028229-0.491394-0.6599579
			c-0.1714096-0.1542664-0.4171143-0.2342682-0.7370987-0.2342682c-0.3656845,0-0.6656647,0.1199951-0.9027939,0.3571167
			c-0.2399864,0.2399902-0.3571205,0.5256805-0.3571205,0.8599548c0,0.5056915,0.1856995,1.0113678,0.557106,1.5113373
			c0.3714027,0.5028229,0.9485207,0.9228058,1.7284584,1.2570648c0.782814,0.3342743,1.7199097,0.5028229,2.8141174,0.5028229
			c1.1456451,0,2.1170044-0.1542816,2.9169769-0.465683c0.7999496-0.308548,1.4056244-0.759964,1.8141632-1.3599243
			c0.4085617-0.5999603,0.6142578-1.3199158,0.6142578-2.1598663
			C73.5275803,184.4697723,73.3733063,183.9726715,73.064743,183.5384064 M53.568779,179.5072174
			c0.4856911-0.5228119,1.1085052-0.785675,1.8684578-0.785675c0.7971039,0,1.4370613,0.2599945,1.9255981,0.7742462
			c0.4856911,0.5199738,0.768528,1.2970734,0.8428116,2.339859h-5.5253868
			C52.7831192,180.8071442,53.0802345,180.0328979,53.568779,179.5072174 M60.4912224,183.2241364
			c0.4399719-0.2256927,0.6599579-0.7228088,0.6599579-1.4884796c0-0.8256531-0.2114105-1.6370392-0.637104-2.4341278
			c-0.4228287-0.7942505-1.0627861-1.4456329-1.9141655-1.9484711c-0.8513794-0.4999695-1.8713226-0.7513885-3.0626793-0.7513885
			c-0.9142303,0-1.7484665,0.1457214-2.4998512,0.4399872s-1.3827667,0.7171021-1.8970222,1.265625
			c-0.5142555,0.5514069-0.9028091,1.2113647-1.1713562,1.9827423c-0.2685623,0.7685242-0.4028435,1.6056213-0.4028435,2.5055695
			c0,1.9113159,0.5428314,3.4255066,1.63134,4.5425873c1.08564,1.114212,2.6055565,1.6741791,4.5625839,1.6741791
			c0.85709,0,1.6141853-0.1114197,2.271286-0.3371124c0.6599579-0.2228546,1.2056465-0.5028229,1.6399078-0.842804
			c0.4371147-0.3371277,0.7628059-0.691391,0.9770813-1.0599518c0.2171288-0.3685455,0.322834-0.6885223,0.322834-0.9656372
			c0-0.3114166-0.0942726-0.5514069-0.2885475-0.7228241c-0.1942787-0.1714172-0.445694-0.2571259-0.759964-0.2571259
			c-0.2885475,0-0.5142555,0.0657043-0.6685219,0.1999817c-0.3799782,0.3571167-0.6885338,0.6399536-0.925663,0.848526
			c-0.2399864,0.2085571-0.4999695,0.402832-0.7828064,0.5856781c-0.2828484,0.1828461-0.5742493,0.3171234-0.8742332,0.402832
			c-0.302845,0.0857086-0.6371117,0.1285553-0.9999466,0.1285553c-0.54282,0-1.0399323-0.1342621-1.4913368-0.402832
			c-0.4485474-0.2685547-0.8085251-0.6656647-1.0799294-1.1941986c-0.2742691-0.5285492-0.4114075-1.137085-0.4199829-1.8313293
			h5.9596481C59.4370003,183.5641174,60.0541039,183.4526978,60.4912224,183.2241364 M39.8896065,174.8589325
			c1.2056313,0,2.1027298,0.1371307,2.6912575,0.4085388c0.5885429,0.2714233,0.8799553,0.8199615,0.8799553,1.6456146
			c0,0.3885498-0.0914268,0.7371063-0.2771263,1.0485077c-0.2399826,0.4399719-0.5828285,0.7371063-1.0342216,0.8942413
			c-0.4485474,0.157135-1.0856514,0.2342682-1.9113197,0.2342682h-3.0369606v-4.2311707H39.8896065z M43.2494011,182.0242157
			c0.5799637,0.3742676,0.871376,0.9713745,0.871376,1.7970276c0,1.6141968-1.1199379,2.4227142-3.3597946,2.4227142h-3.5597916
			v-4.7768555h3.4483643C41.803772,181.4671021,42.6694374,181.6528015,43.2494011,182.0242157 M43.1608391,188.6038055
			c0.6485252-0.0856934,1.2199211-0.2313995,1.7198906-0.4399719c0.7942352-0.3513947,1.4284859-0.8913727,1.8970337-1.6256104
			c0.4685364-0.731369,0.7028084-1.5570374,0.7028084-2.4712677c0-1.9798889-1.077076-3.3112335-3.2255135-3.9940643
			c1.6370392-0.7599487,2.4541321-1.957016,2.4541321-3.5940704c0-0.4771118-0.0771408-0.9284973-0.2342644-1.3570557
			c-0.157135-0.4256897-0.382843-0.8170929-0.679966-1.1713562c-0.2971268-0.3542633-0.6399612-0.6456757-1.028511-0.8770905
			c-0.4513969-0.2742615-0.9656525-0.4599762-1.5399017-0.5570984c-0.5713959-0.0971375-1.248497-0.1457214-2.0284462-0.1457214
			h-5.3025475c-0.7056656,0-1.2170677,0.1599884-1.5341911,0.4742584c-0.3171234,0.3171234-0.4742584,0.8370972-0.4742584,1.5570526
			v12.2992706c0,0.705658,0.1542778,1.2227783,0.4628258,1.5456085c0.3085594,0.3228455,0.8228149,0.4856873,1.5456238,0.4856873
			h4.9996986C41.7580643,188.7323761,42.5123024,188.6895294,43.1608391,188.6038055"/>
</svg>
